xula2_fpga/parallel/tb/vcd/wbdeppsimple1.vcd
$date
	Wed May  4 16:11:46 2016
$end
$version
	Icarus Verilog
$end
$timescale
	10ps
$end
$scope module tb_wbdeppsimple1 $end
$var wire 8 ! to_depp [7:0] $end
$var wire 1 " o_wb_we $end
$var wire 1 # o_wb_stb $end
$var wire 32 $ o_wb_data [31:0] $end
$var wire 1 % o_wb_cyc $end
$var wire 32 & o_wb_addr [31:0] $end
$var wire 1 ' o_wait $end
$var wire 8 ( o_rpi2B [7:0] $end
$var wire 8 ) o_depp [7:0] $end
$var reg 8 * fr_depp [7:0] $end
$var reg 1 + i_astb_n $end
$var reg 1 , i_clk $end
$var reg 8 - i_depp [7:0] $end
$var reg 1 . i_dstb_n $end
$var reg 1 / i_int $end
$var reg 8 0 i_rpi2B [7:0] $end
$var reg 1 1 i_wb_ack $end
$var reg 32 2 i_wb_data [31:0] $end
$var reg 1 3 i_wb_err $end
$var reg 1 4 i_wb_stall $end
$var reg 1 5 i_write_n $end
$scope module dut_wbdeppsimple $end
$var wire 1 6 astb $end
$var wire 1 7 dstb $end
$var wire 1 + i_astb_n $end
$var wire 1 , i_clk $end
$var wire 8 8 i_depp [7:0] $end
$var wire 1 . i_dstb_n $end
$var wire 1 / i_int $end
$var wire 1 1 i_wb_ack $end
$var wire 32 9 i_wb_data [31:0] $end
$var wire 1 3 i_wb_err $end
$var wire 1 4 i_wb_stall $end
$var wire 1 5 i_write_n $end
$var wire 1 ' o_wait $end
$var wire 1 : w_wait $end
$var wire 1 ; w_write $end
$var reg 8 < addr [7:0] $end
$var reg 1 = l_astb_n $end
$var reg 1 > l_dstb_n $end
$var reg 8 ? o_depp [7:0] $end
$var reg 32 @ o_wb_addr [31:0] $end
$var reg 1 % o_wb_cyc $end
$var reg 32 A o_wb_data [31:0] $end
$var reg 1 # o_wb_stb $end
$var reg 1 " o_wb_we $end
$var reg 1 B r_astb_n $end
$var reg 32 C r_data [31:0] $end
$var reg 8 D r_depp [7:0] $end
$var reg 1 E r_dstb_n $end
$var reg 1 F r_err $end
$var reg 1 G r_int $end
$var reg 1 H r_write_n $end
$var reg 1 I x_astb_n $end
$var reg 8 J x_depp [7:0] $end
$var reg 1 K x_dstb_n $end
$var reg 1 L x_write_n $end
$upscope $end
$scope module tb_rpi2B_io $end
$var wire 8 M fr_depp [7:0] $end
$var wire 8 N i_rpi2B [7:0] $end
$var wire 8 O to_depp [7:0] $end
$var wire 8 P o_rpi2B [7:0] $end
$upscope $end
$upscope $end
$enddefinitions $end
#0
$dumpvars
bx P
bx O
bx N
bx M
xL
1K
bx J
1I
xH
0G
0F
1E
bx D
bx C
1B
bx A
bx @
bx ?
1>
1=
b0 <
x;
0:
bx 9
bx 8
07
06
x5
x4
x3
bx 2
x1
bx 0
x/
x.
bx -
x,
x+
bx *
bx )
bx (
0'
bx &
0%
bx $
0#
x"
bx !
$end
#10002
1'
1:
0K
0I
0L
b0 J
b0 !
b0 O
b0 (
b0 P
b0 0
b0 N
b0 *
b0 M
0/
b0 2
b0 9
03
04
01
b0 -
b0 8
05
0.
0+
1,
#10003
15
#20002
0,
#30002
17
16
1;
0E
0B
0H
b0 D
1L
1,
#30003
1.
#40002
0,
#50002
07
06
0;
0>
0=
1H
1K
b0xxxxxxxxxxxxxxxxxxxxxxxx &
b0xxxxxxxxxxxxxxxxxxxxxxxx @
1,
#50003
1+
#60002
0,
#70002
b0 )
b0 ?
1E
1I
1,
#70003
b1 !
b1 O
b1 0
b1 N
#70005
b1 -
b1 8
#80002
0,
#90002
1>
1B
b1 J
1,
#90003
05
#100002
0,
#110002
0'
0:
1=
b1 D
0L
1,
#110003
0.
#120002
0,
#130002
1;
1'
1:
0H
0K
1,
#130003
1.
#140002
0,
#150002
17
0E
1K
1,
#150003
0+
#160002
0,
#170002
07
0>
1E
0I
b1xxxxxxxxxxxxxxxxxxxxxxxx &
b1xxxxxxxxxxxxxxxxxxxxxxxx @
1,
#170003
15
#180002
0,
#190002
16
b1 )
b1 ?
1>
0B
1L
1,
#190003
1+
#190004
b1 (
b1 P
b1 *
b1 M
#200002
0,
#210002
06
0;
0=
1H
1I
b1 <
1,
#220002
0,
#230002
bx )
bx ?
1B
1,
#230004
b0 (
b0 P
b0 *
b0 M
#240002
0,
#250002
0'
0:
1=
1,
#260002
0,
#270002
1,
#270003
b10 !
b10 O
b10 0
b10 N
#270005
b10 -
b10 8
#280002
0,
#290002
b10 J
1,
#290003
05
#300002
0,
#310002
b10 D
0L
1,
#310003
0.
#320002
0,
#330002
1;
1'
1:
0H
0K
1,
#330003
1.
#340002
0,
#350002
17
0E
1K
1,
#350003
0+
#360002
0,
#370002
07
0>
1E
0I
b100000010xxxxxxxxxxxxxxxx &
b100000010xxxxxxxxxxxxxxxx @
1,
#370003
15
#380002
0,
#390002
16
b10 )
b10 ?
1>
0B
1L
1,
#390003
1+
#390004
b10 (
b10 P
b10 *
b10 M
#400002
0,
#410002
06
0;
0=
1H
1I
b10 <
1,
#420002
0,
#430002
bx )
bx ?
1B
1,
#430004
b0 (
b0 P
b0 *
b0 M
#440002
0,
#450002
0'
0:
1=
1,
#460002
0,
#470002
1,
#470003
b11 !
b11 O
b11 0
b11 N
#470005
b11 -
b11 8
#480002
0,
#490002
b11 J
1,
#490003
05
#500002
0,
#510002
b11 D
0L
1,
#510003
0.
#520002
0,
#530002
1;
1'
1:
0H
0K
1,
#530003
1.
#540002
0,
#550002
17
0E
1K
1,
#550003
0+
#560002
0,
#570002
07
0>
1E
0I
b10000001000000011xxxxxxxx &
b10000001000000011xxxxxxxx @
1,
#570003
15
#580002
0,
#590002
16
b11 )
b11 ?
1>
0B
1L
1,
#590003
1+
#590004
b11 (
b11 P
b11 *
b11 M
#600002
0,
#610002
06
0;
0=
1H
1I
b11 <
1,
#620002
0,
#630002
bx )
bx ?
1B
1,
#630004
b0 (
b0 P
b0 *
b0 M
#640002
0,
#650002
0'
0:
1=
1,
#660002
0,
#670002
1,
#670003
b100 !
b100 O
b100 0
b100 N
#670005
b100 -
b100 8
#680002
0,
#690002
b100 J
1,
#690003
05
#700002
0,
#710002
b100 D
0L
1,
#710003
0.
#720002
0,
#730002
1;
1'
1:
0H
0K
1,
#730003
1.
#740002
0,
#750002
17
0E
1K
1,
#750003
0+
#760002
0,
#770002
07
0>
1E
0I
b1000000100000001100000100 &
b1000000100000001100000100 @
1,
#770003
15
#780002
0,
#790002
16
b100 )
b100 ?
1>
0B
1L
1,
#790003
1+
#790004
b100 (
b100 P
b100 *
b100 M
#800002
0,
#810002
06
0;
0=
1H
1I
b100 <
1,
#820002
0,
#830002
bx )
bx ?
1B
1,
#830004
b0 (
b0 P
b0 *
b0 M
#840002
0,
#850002
0'
0:
1=
1,
#860002
0,
#870002
1,
#870003
b1 !
b1 O
b1 0
b1 N
#870005
b1 -
b1 8
#880002
0,
#890002
b1 J
1,
#890003
05
#900002
0,
#910002
b1 D
0L
1,
#910003
0.
#920002
0,
#930002
1;
1'
1:
0H
0K
1,
#930003
1.
#940002
0,
#950002
17
0E
1K
1,
#960002
0,
#970002
07
0>
1E
b1xxxxxxxxxxxxxxxxxxxxxxxx $
b1xxxxxxxxxxxxxxxxxxxxxxxx A
1,
#970003
15
#980002
0,
#990002
0'
0:
1>
1L
1,
#1000002
0,
#1010002
0;
1H
1,
#1010003
b10 !
b10 O
b10 0
b10 N
#1010005
b10 -
b10 8
#1020002
0,
#1030002
b10 J
1,
#1030003
05
#1040002
0,
#1050002
b10 D
0L
1,
#1050003
0.
#1060002
0,
#1070002
1;
1'
1:
0H
0K
1,
#1070003
1.
#1080002
0,
#1090002
17
0E
1K
1,
#1100002
0,
#1110002
07
b10xxxxxxxxxxxxxxxxxxxxxxxx $
b10xxxxxxxxxxxxxxxxxxxxxxxx A
0>
1E
1,
#1110003
15
#1120002
0,
#1130002
0'
0:
1>
1L
1,
#1140002
0,
#1150002
0;
1H
1,
#1150003
b11 !
b11 O
b11 0
b11 N
#1150005
b11 -
b11 8
#1160002
0,
#1170002
b11 J
1,
#1170003
05
#1180002
0,
#1190002
b11 D
0L
1,
#1190003
0.
#1200002
0,
#1210002
1;
1'
1:
0H
0K
1,
#1210003
1.
#1220002
0,
#1230002
17
0E
1K
1,
#1240002
0,
#1250002
07
0>
1E
b11xxxxxxxxxxxxxxxxxxxxxxxx $
b11xxxxxxxxxxxxxxxxxxxxxxxx A
1,
#1250003
15
#1260002
0,
#1270002
0'
0:
1>
1L
1,
#1280002
0,
#1290002
0;
1H
1,
#1290003
b100 !
b100 O
b100 0
b100 N
#1290005
b100 -
b100 8
#1300002
0,
#1310002
b100 J
1,
#1310003
05
#1320002
0,
#1330002
b100 D
0L
1,
#1330003
0.
#1340002
0,
#1350002
1;
1'
1:
0H
0K
1,
#1350003
1.
#1360002
0,
#1370002
17
0E
1K
1,
#1380002
0,
#1390002
07
b100xxxxxxxxxxxxxxxxxxxxxxxx $
b100xxxxxxxxxxxxxxxxxxxxxxxx A
0>
1E
1,
#1390003
15
#1400002
0,
#1410002
0'
0:
1>
1L
1,
