xula2_fpga/parallel/tb/vcd/wbdeppsimple1.vcd
$date
	Tue May  3 05:07:03 2016
$end
$version
	Icarus Verilog
$end
$timescale
	10ps
$end
$scope module tb_wbdeppsimple1 $end
$var wire 32 ! o_wb_data [31:0] $end
$var wire 1 " o_wb_stall $end
$var wire 8 # to_depp [7:0] $end
$var wire 1 $ o_wb_we $end
$var wire 1 % o_wb_stb $end
$var wire 1 & o_wb_cyc $end
$var wire 32 ' o_wb_addr [31:0] $end
$var wire 1 ( o_wb_ack $end
$var wire 1 ) o_wait $end
$var wire 8 * o_rpi2B [7:0] $end
$var wire 8 + o_depp [7:0] $end
$var reg 8 , fr_depp [7:0] $end
$var reg 1 - i_astb_n $end
$var reg 1 . i_clk $end
$var reg 8 / i_depp [7:0] $end
$var reg 1 0 i_dstb_n $end
$var reg 1 1 i_int $end
$var reg 8 2 i_rpi2B [7:0] $end
$var reg 1 3 i_wb_ack $end
$var reg 1 4 i_wb_cyc $end
$var reg 32 5 i_wb_data [31:0] $end
$var reg 1 6 i_wb_err $end
$var reg 1 7 i_wb_stall $end
$var reg 1 8 i_wb_stb $end
$var reg 1 9 i_wb_we $end
$var reg 1 : i_write_n $end
$scope module dut_wbdeppsimple $end
$var wire 1 ; astb $end
$var wire 1 < dstb $end
$var wire 1 - i_astb_n $end
$var wire 1 . i_clk $end
$var wire 8 = i_depp [7:0] $end
$var wire 1 0 i_dstb_n $end
$var wire 1 1 i_int $end
$var wire 1 3 i_wb_ack $end
$var wire 32 > i_wb_data [31:0] $end
$var wire 1 6 i_wb_err $end
$var wire 1 7 i_wb_stall $end
$var wire 1 : i_write_n $end
$var wire 1 ) o_wait $end
$var wire 1 ? w_wait $end
$var wire 1 @ w_write $end
$var reg 8 A addr [7:0] $end
$var reg 1 B l_astb_n $end
$var reg 1 C l_dstb_n $end
$var reg 8 D o_depp [7:0] $end
$var reg 32 E o_wb_addr [31:0] $end
$var reg 1 & o_wb_cyc $end
$var reg 32 F o_wb_data [31:0] $end
$var reg 1 % o_wb_stb $end
$var reg 1 $ o_wb_we $end
$var reg 1 G r_astb_n $end
$var reg 32 H r_data [31:0] $end
$var reg 8 I r_depp [7:0] $end
$var reg 1 J r_dstb_n $end
$var reg 1 K r_err $end
$var reg 1 L r_int $end
$var reg 1 M r_write_n $end
$var reg 1 N x_astb_n $end
$var reg 8 O x_depp [7:0] $end
$var reg 1 P x_dstb_n $end
$var reg 1 Q x_write_n $end
$upscope $end
$scope module tb_memdev $end
$var wire 1 . i_clk $end
$var wire 15 R i_wb_addr [14:0] $end
$var wire 1 4 i_wb_cyc $end
$var wire 32 S i_wb_data [31:0] $end
$var wire 1 8 i_wb_stb $end
$var wire 1 9 i_wb_we $end
$var wire 1 " o_wb_stall $end
$var reg 1 ( o_wb_ack $end
$var reg 32 T o_wb_data [31:0] $end
$upscope $end
$scope module tb_rpi2B_io $end
$var wire 8 U fr_depp [7:0] $end
$var wire 8 V i_rpi2B [7:0] $end
$var wire 8 W to_depp [7:0] $end
$var wire 8 X o_rpi2B [7:0] $end
$upscope $end
$upscope $end
$enddefinitions $end
#0
$dumpvars
bx X
bx W
bx V
bx U
bx T
bx S
b0z R
xQ
1P
bx O
1N
xM
0L
0K
1J
bx I
bx H
1G
bx F
bx E
bx D
1C
1B
b0 A
x@
0?
bx >
bx =
0<
0;
x:
x9
x8
x7
x6
bx 5
x4
x3
bx 2
x1
x0
bx /
x.
x-
bx ,
bx +
bx *
0)
x(
bx '
0&
0%
x$
bx #
0"
bx !
$end
#10002
1)
1?
0P
0N
0Q
b0 O
0(
b0 #
b0 W
b0 *
b0 X
b0 2
b0 V
b0 ,
b0 U
01
b0 5
b0 >
b0 S
06
07
03
09
08
04
b0 /
b0 =
0:
00
0-
1.
#20002
0.
#30002
1<
1;
1@
0J
0G
0M
b0 I
1.
#40002
0.
#50002
0<
0;
0C
0B
b0xxxxxxxxxxxxxxxxxxxxxxxx '
b0xxxxxxxxxxxxxxxxxxxxxxxx E
1.
#60002
0.
#70002
b0 +
b0 D
1.
#80002
0.
#90002
1.
#100002
0.
#110002
1.
#120002
0.
#130002
1.
#140002
0.
#150002
1.
#160002
0.
#170002
1.
#180002
0.
#190002
1.
#200002
0.
#210002
1.
#220002
0.
#230002
1.
#240002
0.
#250002
1.
#260002
0.
#270002
1.
#280002
0.
#290002
1.
#300002
0.
#310002
1.
#320002
0.
#330002
1.
#340002
0.
#350002
1.
#360002
0.
#370002
1.
#380002
0.
#390002
1.
#400002
0.
#410002
1.
#420002
0.
#430002
1.
#440002
0.
#450002
1.
#460002
0.
#470002
1.
#480002
0.
#490002
1.
#500002
0.
#510002
1.
#520002
0.
#530002
1.
#540002
0.
#550002
1.
#560002
0.
#570002
1.
#580002
0.
#590002
1.
#600002
0.
#610002
1.
#620002
0.
#630002
1.
#640002
0.
#650002
1.
#660002
0.
#670002
1.
#680002
0.
#690002
1.
#700002
0.
#710002
1.
#720002
0.
#730002
1.
#740002
0.
#750002
1.
#760002
0.
#770002
1.
#780002
0.
#790002
1.
#800002
0.
#810002
1.
#820002
0.
#830002
1.
#840002
0.
#850002
1.
#860002
0.
#870002
1.
#880002
0.
#890002
1.
#900002
0.
#910002
1.
#920002
0.
#930002
1.
#940002
0.
#950002
1.
#960002
0.
#970002
1.
#980002
0.
#990002
1.
#1000002
0.
#1010002
1.
#1020002
0.
#1030002
1.
#1040002
0.
#1050002
1.
#1060002
0.
#1070002
1.
#1080002
0.
#1090002
1.
#1100002
0.
#1110002
1.
#1120002
0.
#1130002
1.
#1140002
0.
#1150002
1.
#1160002
0.
#1170002
1.
#1180002
0.
#1190002
1.
#1200002
0.
#1210002
1.
#1220002
0.
#1230002
1.
#1240002
0.
#1250002
1.
#1260002
0.
#1270002
1.
#1280002
0.
#1290002
1.
#1300002
0.
#1310002
1.
#1320002
0.
#1330002
1.
#1340002
0.
#1350002
1.
#1360002
0.
#1370002
1.
#1380002
0.
#1390002
1.
#1400002
0.
#1410002
1.
#1420002
0.
#1430002
1.
#1440002
0.
#1450002
1.
#1460002
0.
#1470002
1.
#1480002
0.
#1490002
1.
#1500002
0.
#1510002
1.
#1520002
0.
#1530002
1.
#1540002
0.
#1550002
1.
#1560002
0.
#1570002
1.
#1580002
0.
#1590002
1.
#1600002
0.
#1610002
1.
#1620002
0.
#1630002
1.
#1640002
0.
#1650002
1.
#1660002
0.
#1670002
1.
#1680002
0.
#1690002
1.
#1700002
0.
#1710002
1.
#1720002
0.
#1730002
1.
#1740002
0.
#1750002
1.
#1760002
0.
#1770002
1.
#1780002
0.
#1790002
1.
#1800002
0.
#1810002
1.
#1820002
0.
#1830002
1.
#1840002
0.
#1850002
1.
#1860002
0.
#1870002
1.
#1880002
0.
#1890002
1.
#1900002
0.
#1910002
1.
#1920002
0.
#1930002
1.
#1940002
0.
#1950002
1.
#1960002
0.
#1970002
1.
#1980002
0.
#1990002
1.
#2000002
0.
#2010002
1.
#2020002
0.
#2030002
1.
#2030003
1:
#2040002
0.
#2050002
1Q
1.
#2050003
10
#2060002
0.
#2070002
0@
1M
1P
1.
#2070003
1-
#2080002
0.
#2090002
1J
1N
1.
#2090003
0:
#2100002
0.
#2110002
1C
1G
0Q
1.
#2110003
0-
#2120002
0.
#2130002
1@
1B
0M
0N
1.
#2130003
00
#2140002
0.
#2150002
1;
0G
0P
1.
#2160002
0.
#2170002
1<
0;
0B
0J
1.
#2170003
1:
#2180002
0.
#2190002
0<
0C
1Q
1.
#2190003
10
#2200002
0.
#2210002
0@
1M
1P
1.
#2210003
1-
#2220002
0.
#2230002
1J
1N
1.
#2230003
0:
#2240002
0.
#2250002
1C
1G
0Q
1.
#2250003
0-
#2260002
0.
#2270002
1@
1B
0M
0N
1.
#2270003
00
#2280002
0.
#2290002
1;
0G
0P
1.
#2300002
0.
#2310002
1<
0;
0B
0J
1.
#2310003
1:
#2320002
0.
#2330002
0<
0C
1Q
1.
#2330003
10
#2340002
0.
#2350002
0@
1M
1P
1.
#2350003
1-
#2360002
0.
#2370002
1J
1N
1.
#2370003
0:
#2380002
0.
#2390002
1C
1G
0Q
1.
#2390003
0-
#2400002
0.
#2410002
1@
1B
0M
0N
1.
#2410003
00
#2420002
0.
#2430002
1;
0G
0P
1.
#2430003
b1 #
b1 W
b1 2
b1 V
#2430005
b1 /
b1 =
#2440002
0.
#2450002
1<
0;
0B
0J
b1 O
1.
#2450003
1:
#2460002
0.
#2470002
0<
0C
b1 I
1Q
1.
#2470003
10
#2480002
0.
#2490002
0@
1M
1P
1.
#2490003
1-
#2500002
0.
#2510002
1J
1N
1.
#2510003
0:
#2520002
0.
#2530002
1C
1G
0Q
1.
#2530003
0-
#2540002
0.
#2550002
1@
1B
0M
0N
1.
#2550003
00
#2560002
0.
#2570002
1;
0G
0P
1.
#2580002
0.
#2590002
1<
0;
b1 A
0B
0J
1.
#2600002
0.
#2610002
0<
0C
b1xxxxxxxxxxxxxxxx '
b1xxxxxxxxxxxxxxxx E
bx +
bx D
1.
#2620002
0.
#2630002
b1 +
b1 D
1.
#2630004
b1 *
b1 X
b1 ,
b1 U
