xula2_fpga/parallel/tb/vcd/wbdeppsimple1.vcd
$date
	Tue May  3 15:41:25 2016
$end
$version
	Icarus Verilog
$end
$timescale
	10ps
$end
$scope module tb_wbdeppsimple1 $end
$var wire 8 ! to_depp [7:0] $end
$var wire 1 " o_wb_we $end
$var wire 1 # o_wb_stb $end
$var wire 32 $ o_wb_data [31:0] $end
$var wire 1 % o_wb_cyc $end
$var wire 32 & o_wb_addr [31:0] $end
$var wire 1 ' o_wait $end
$var wire 8 ( o_rpi2B [7:0] $end
$var wire 8 ) o_depp [7:0] $end
$var reg 8 * fr_depp [7:0] $end
$var reg 1 + i_astb_n $end
$var reg 1 , i_clk $end
$var reg 8 - i_depp [7:0] $end
$var reg 1 . i_dstb_n $end
$var reg 1 / i_int $end
$var reg 8 0 i_rpi2B [7:0] $end
$var reg 1 1 i_wb_ack $end
$var reg 32 2 i_wb_data [31:0] $end
$var reg 1 3 i_wb_err $end
$var reg 1 4 i_wb_stall $end
$var reg 1 5 i_write_n $end
$scope module dut_wbdeppsimple $end
$var wire 1 6 astb $end
$var wire 1 7 dstb $end
$var wire 1 + i_astb_n $end
$var wire 1 , i_clk $end
$var wire 8 8 i_depp [7:0] $end
$var wire 1 . i_dstb_n $end
$var wire 1 / i_int $end
$var wire 1 1 i_wb_ack $end
$var wire 32 9 i_wb_data [31:0] $end
$var wire 1 3 i_wb_err $end
$var wire 1 4 i_wb_stall $end
$var wire 1 5 i_write_n $end
$var wire 1 ' o_wait $end
$var wire 1 : w_wait $end
$var wire 1 ; w_write $end
$var reg 8 < addr [7:0] $end
$var reg 1 = l_astb_n $end
$var reg 1 > l_dstb_n $end
$var reg 8 ? o_depp [7:0] $end
$var reg 32 @ o_wb_addr [31:0] $end
$var reg 1 % o_wb_cyc $end
$var reg 32 A o_wb_data [31:0] $end
$var reg 1 # o_wb_stb $end
$var reg 1 " o_wb_we $end
$var reg 1 B r_astb_n $end
$var reg 32 C r_data [31:0] $end
$var reg 8 D r_depp [7:0] $end
$var reg 1 E r_dstb_n $end
$var reg 1 F r_err $end
$var reg 1 G r_int $end
$var reg 1 H r_write_n $end
$var reg 1 I x_astb_n $end
$var reg 8 J x_depp [7:0] $end
$var reg 1 K x_dstb_n $end
$var reg 1 L x_write_n $end
$upscope $end
$scope module tb_rpi2B_io $end
$var wire 8 M fr_depp [7:0] $end
$var wire 8 N i_rpi2B [7:0] $end
$var wire 8 O to_depp [7:0] $end
$var wire 8 P o_rpi2B [7:0] $end
$upscope $end
$upscope $end
$enddefinitions $end
#0
$dumpvars
bx P
bx O
bx N
bx M
xL
1K
bx J
1I
xH
0G
0F
1E
bx D
bx C
1B
bx A
bx @
bx ?
1>
1=
b0 <
x;
0:
bx 9
bx 8
07
06
x5
x4
x3
bx 2
x1
bx 0
x/
x.
bx -
x,
x+
bx *
bx )
bx (
0'
bx &
0%
bx $
0#
x"
bx !
$end
#10002
1'
1:
0K
0I
0L
b0 J
b0 !
b0 O
b0 (
b0 P
b0 0
b0 N
b0 *
b0 M
0/
b0 2
b0 9
03
04
01
b0 -
b0 8
05
0.
0+
1,
#20002
0,
#30002
17
16
1;
0E
0B
0H
b0 D
1,
#40002
0,
#50002
07
06
0>
0=
b0xxxxxxxxxxxxxxxxxxxxxxxx &
b0xxxxxxxxxxxxxxxxxxxxxxxx @
1,
#50003
15
#60002
0,
#70002
b0 )
b0 ?
1L
1,
#70003
1.
#80002
0,
#90002
0;
1H
1K
1,
#90003
1+
#100002
0,
#110002
1E
1I
1,
#110003
05
#120002
0,
#130002
1>
1B
0L
1,
#130003
0.
#140002
0,
#150002
1;
1=
0H
0K
1,
#150003
0+
#160002
0,
#170002
17
0E
0I
1,
#170003
15
#180002
0,
#190002
16
07
0>
0B
1L
1,
#190003
1.
#200002
0,
#210002
06
0;
0=
1H
1K
1,
#210003
1+
#220002
0,
#230002
1E
1I
1,
#240002
0,
#250002
1>
1B
1,
#260002
0,
#270002
0'
0:
1=
1,
#280002
0,
#290002
1,
#300002
0,
#310002
1,
#320002
0,
#330002
1,
#340002
0,
#350002
1,
#360002
0,
#370002
1,
#380002
0,
#390002
1,
#390003
05
#400002
0,
#410002
0L
1,
#410003
0.
#420002
0,
#430002
1;
1'
1:
0H
0K
1,
#430003
0+
#440002
0,
#450002
17
0E
0I
1,
#450003
15
#460002
0,
#470002
16
07
0>
0B
1L
1,
#470003
1.
#480002
0,
#490002
06
0;
0=
1H
1K
1,
#490003
1+
#500002
0,
#510002
1E
1I
1,
#520002
0,
#530002
1>
1B
1,
#540002
0,
#550002
0'
0:
1=
1,
#560002
0,
#570002
1,
#580002
0,
#590002
1,
#600002
0,
#610002
1,
#620002
0,
#630002
1,
#640002
0,
#650002
1,
#660002
0,
#670002
1,
#670003
05
#680002
0,
#690002
0L
1,
#690003
0.
#700002
0,
#710002
1;
1'
1:
0H
0K
1,
#710003
0+
#720002
0,
#730002
17
0E
0I
1,
#730003
15
#740002
0,
#750002
16
07
0>
0B
1L
1,
#750003
1.
#760002
0,
#770002
06
0;
0=
1H
1K
1,
#770003
1+
#780002
0,
#790002
1E
1I
1,
#800002
0,
#810002
1>
1B
1,
#820002
0,
#830002
0'
0:
1=
1,
#840002
0,
#850002
1,
#850003
b1 !
b1 O
b1 0
b1 N
#850005
b1 -
b1 8
#860002
0,
#870002
b1 J
1,
#880002
0,
#890002
b1 D
1,
#900002
0,
#910002
1,
#920002
0,
#930002
1,
#940002
0,
#950002
1,
#950003
05
#960002
0,
#970002
0L
1,
#970003
0.
#980002
0,
#990002
1;
1'
1:
0H
0K
1,
#990003
0+
#1000002
0,
#1010002
17
0E
0I
1,
#1010003
15
#1020002
0,
#1030002
16
07
b1xxxxxxxxxxxxxxxxxxxxxxxx &
b1xxxxxxxxxxxxxxxxxxxxxxxx @
0>
0B
1L
1,
#1030003
1.
#1040002
0,
#1050002
06
0;
0=
1H
1K
b1 <
b1 )
b1 ?
1,
#1050003
1+
#1050004
b1 (
b1 P
b1 *
b1 M
#1060002
0,
#1070002
bx )
bx ?
1E
1I
1,
#1070004
b0 (
b0 P
b0 *
b0 M
#1080002
0,
#1090002
1>
1B
1,
#1100002
0,
#1110002
0'
0:
1=
1,
#1120002
0,
#1130002
1,
#1130003
b0 !
b0 O
b0 0
b0 N
#1130005
b0 -
b0 8
#1140002
0,
#1150002
b0 J
1,
#1160002
0,
#1170002
b0 D
1,
#1180002
0,
#1190002
1,
#1200002
0,
#1210002
1,
#1220002
0,
#1230002
1,
#1230003
05
#1240002
0,
#1250002
0L
1,
#1250003
0.
#1260002
0,
#1270002
1;
1'
1:
0H
0K
1,
#1270003
0+
#1280002
0,
#1290002
17
0E
0I
1,
#1290003
15
#1300002
0,
#1310002
16
07
b100000000xxxxxxxxxxxxxxxx &
b100000000xxxxxxxxxxxxxxxx @
0>
0B
1L
1,
#1310003
1.
#1320002
0,
#1330002
06
0;
0=
1H
1K
b0 <
b0 )
b0 ?
1,
#1330003
1+
#1340002
0,
#1350002
b1 )
b1 ?
1E
1I
1,
#1350004
b1 (
b1 P
b1 *
b1 M
#1360002
0,
#1370002
1>
1B
1,
#1380002
0,
#1390002
0'
0:
1=
1,
#1400002
0,
#1410002
1,
#1420002
0,
#1430002
1,
#1440002
0,
#1450002
1,
#1460002
0,
#1470002
1,
#1480002
0,
#1490002
1,
#1500002
0,
#1510002
1,
#1510003
05
#1520002
0,
#1530002
0L
1,
#1530003
0.
#1540002
0,
#1550002
1;
1'
1:
0H
0K
1,
#1550003
0+
#1560002
0,
#1570002
17
0E
0I
1,
#1570003
15
#1580002
0,
#1590002
16
07
b0xxxxxxxxxxxxxxxx &
b0xxxxxxxxxxxxxxxx @
0>
0B
1L
1,
#1590003
1.
#1600002
0,
#1610002
06
0;
0=
1H
1K
b0 )
b0 ?
1,
#1610003
1+
#1610004
b0 (
b0 P
b0 *
b0 M
#1620002
0,
#1630002
1E
1I
1,
#1640002
0,
#1650002
1>
1B
1,
#1660002
0,
#1670002
0'
0:
1=
1,
#1680002
0,
#1690002
1,
#1700002
0,
#1710002
1,
#1720002
0,
#1730002
1,
#1740002
0,
#1750002
1,
#1760002
0,
#1770002
1,
#1780002
0,
#1790002
1,
#1790003
05
#1800002
0,
#1810002
0L
1,
#1810003
0.
#1820002
0,
#1830002
1;
1'
1:
0H
0K
1,
#1830003
0+
#1840002
0,
#1850002
17
0E
0I
1,
#1850003
15
#1860002
0,
#1870002
16
07
0>
0B
1L
1,
#1870003
1.
#1880002
0,
#1890002
06
0;
0=
1H
1K
1,
#1890003
1+
#1900002
0,
#1910002
1E
1I
1,
#1920002
0,
#1930002
1>
1B
1,
#1940002
0,
#1950002
0'
0:
1=
1,
#1960002
0,
#1970002
1,
#1970003
b10 !
b10 O
b10 0
b10 N
#1970005
b10 -
b10 8
#1980002
0,
#1990002
b10 J
1,
#2000002
0,
#2010002
b10 D
1,
#2020002
0,
#2030002
1,
#2040002
0,
#2050002
1,
#2060002
0,
#2070002
1,
#2070003
05
#2080002
0,
#2090002
0L
1,
#2090003
0.
#2100002
0,
#2110002
1;
1'
1:
0H
0K
1,
#2110003
0+
#2120002
0,
#2130002
17
0E
0I
1,
#2130003
15
#2140002
0,
#2150002
16
07
b1000000000xxxxxxxxxxxxxxxx &
b1000000000xxxxxxxxxxxxxxxx @
0>
0B
1L
1,
#2150003
1.
#2160002
0,
#2170002
06
0;
0=
1H
1K
b10 <
b10 )
b10 ?
1,
#2170003
1+
#2170004
b10 (
b10 P
b10 *
b10 M
#2180002
0,
#2190002
bx )
bx ?
1E
1I
1,
#2190004
b0 (
b0 P
b0 *
b0 M
#2200002
0,
#2210002
1>
1B
1,
#2220002
0,
#2230002
0'
0:
1=
1,
