xula2_fpga/parallel/tb/vcd/wbdeppsimple1.vcd
$date
	Wed May  4 20:53:37 2016
$end
$version
	Icarus Verilog
$end
$timescale
	10ps
$end
$scope module tb_wbdeppsimple1 $end
$var wire 8 ! to_depp [7:0] $end
$var wire 1 " o_wb_we $end
$var wire 1 # o_wb_stb $end
$var wire 32 $ o_wb_data [31:0] $end
$var wire 1 % o_wb_cyc $end
$var wire 32 & o_wb_addr [31:0] $end
$var wire 1 ' o_wait $end
$var wire 8 ( o_rpi2B [7:0] $end
$var wire 8 ) o_depp [7:0] $end
$var reg 8 * fr_depp [7:0] $end
$var reg 1 + i_astb_n $end
$var reg 1 , i_clk $end
$var reg 8 - i_depp [7:0] $end
$var reg 1 . i_dstb_n $end
$var reg 1 / i_int $end
$var reg 8 0 i_rpi2B [7:0] $end
$var reg 1 1 i_wb_ack $end
$var reg 32 2 i_wb_data [31:0] $end
$var reg 1 3 i_wb_err $end
$var reg 1 4 i_wb_stall $end
$var reg 1 5 i_write_n $end
$scope module dut_wbdeppsimple $end
$var wire 1 6 astb $end
$var wire 1 7 dstb $end
$var wire 1 + i_astb_n $end
$var wire 1 , i_clk $end
$var wire 8 8 i_depp [7:0] $end
$var wire 1 . i_dstb_n $end
$var wire 1 / i_int $end
$var wire 1 1 i_wb_ack $end
$var wire 32 9 i_wb_data [31:0] $end
$var wire 1 3 i_wb_err $end
$var wire 1 4 i_wb_stall $end
$var wire 1 5 i_write_n $end
$var wire 1 ' o_wait $end
$var wire 1 : w_wait $end
$var wire 1 ; w_write $end
$var reg 8 < addr [7:0] $end
$var reg 1 = l_astb_n $end
$var reg 1 > l_dstb_n $end
$var reg 8 ? o_depp [7:0] $end
$var reg 32 @ o_wb_addr [31:0] $end
$var reg 1 % o_wb_cyc $end
$var reg 32 A o_wb_data [31:0] $end
$var reg 1 # o_wb_stb $end
$var reg 1 " o_wb_we $end
$var reg 1 B r_astb_n $end
$var reg 32 C r_data [31:0] $end
$var reg 8 D r_depp [7:0] $end
$var reg 1 E r_dstb_n $end
$var reg 1 F r_err $end
$var reg 1 G r_int $end
$var reg 1 H r_write_n $end
$var reg 1 I x_astb_n $end
$var reg 8 J x_depp [7:0] $end
$var reg 1 K x_dstb_n $end
$var reg 1 L x_write_n $end
$upscope $end
$scope module tb_rpi2B_io $end
$var wire 8 M fr_depp [7:0] $end
$var wire 8 N i_rpi2B [7:0] $end
$var wire 8 O to_depp [7:0] $end
$var wire 8 P o_rpi2B [7:0] $end
$upscope $end
$upscope $end
$enddefinitions $end
#0
$dumpvars
bx P
bx O
bx N
bx M
xL
1K
bx J
1I
xH
0G
0F
1E
bx D
bx C
1B
bx A
bx @
bx ?
1>
1=
b0 <
x;
0:
bx 9
bx 8
07
06
x5
x4
x3
bx 2
x1
bx 0
x/
x.
bx -
x,
x+
bx *
bx )
bx (
0'
bx &
0%
bx $
0#
x"
bx !
$end
#10002
1'
1:
0K
0I
0L
b0 J
b0 !
b0 O
b0 (
b0 P
b0 0
b0 N
b0 *
b0 M
0/
b0 2
b0 9
03
04
01
b0 -
b0 8
05
0.
0+
1,
#10003
15
#20002
0,
#30002
17
16
1;
0E
0B
0H
b0 D
1L
1,
#30003
1.
#40002
0,
#50002
07
06
0;
0>
0=
1H
1K
b0xxxxxxxxxxxxxxxxxxxxxxxx &
b0xxxxxxxxxxxxxxxxxxxxxxxx @
1,
#50003
1+
#60002
0,
#70002
b0 )
b0 ?
1E
1I
1,
#80002
0,
#90002
1>
1B
1,
#90003
05
#100002
0,
#110002
0'
0:
1=
0L
1,
#110003
0+
#120002
0,
#130002
1;
1'
1:
0H
0I
1,
#130003
15
#140002
0,
#150002
16
0B
1L
1,
#150003
1+
#160002
0,
#170002
06
0;
0=
1H
1I
1,
#180002
0,
#190002
1B
1,
#200002
0,
#210002
0'
0:
1=
1,
#220002
0,
#230002
1,
#240002
0,
#250002
1,
#250003
05
#260002
0,
#270002
0L
1,
#270003
0+
#280002
0,
#290002
1;
1'
1:
0H
0I
1,
#290003
15
#300002
0,
#310002
16
0B
1L
1,
#310003
1+
#320002
0,
#330002
06
0;
0=
1H
1I
1,
#340002
0,
#350002
1B
1,
#360002
0,
#370002
0'
0:
1=
1,
#380002
0,
#390002
1,
#400002
0,
#410002
1,
#410003
05
#420002
0,
#430002
0L
1,
#430003
0+
#440002
0,
#450002
1;
1'
1:
0H
0I
1,
#450003
15
#460002
0,
#470002
16
0B
1L
1,
#470003
1+
#480002
0,
#490002
06
0;
0=
1H
1I
1,
#500002
0,
#510002
1B
1,
#520002
0,
#530002
0'
0:
1=
1,
#540002
0,
#550002
1,
#560002
0,
#570002
1,
#570003
05
#580002
0,
#590002
0L
1,
#590003
0+
#600002
0,
#610002
1;
1'
1:
0H
0I
1,
#610003
15
#620002
0,
#630002
16
0B
1L
1,
#630003
1+
#640002
0,
#650002
06
0;
0=
1H
1I
1,
#660002
0,
#670002
1B
1,
#680002
0,
#690002
0'
0:
1=
1,
#700002
0,
#710002
1,
#710003
b1 !
b1 O
b1 0
b1 N
#710005
b1 -
b1 8
#720002
0,
#730002
b1 J
1,
#730003
05
#740002
0,
#750002
b1 D
0L
1,
#750003
0.
#760002
0,
#770002
1;
1'
1:
0H
0K
1,
#770003
1.
#780002
0,
#790002
17
0E
1K
1,
#800002
0,
#810002
07
0>
1E
b1xxxxxxxxxxxxxxxxxxxxxxxx &
b1xxxxxxxxxxxxxxxxxxxxxxxx @
1,
#810003
15
#820002
0,
#830002
0'
0:
b1 )
b1 ?
1>
1L
1,
#830004
b1 (
b1 P
b1 *
b1 M
#840002
0,
#850002
0;
1H
1,
#850003
b10 !
b10 O
b10 0
b10 N
#850005
b10 -
b10 8
#860002
0,
#870002
b10 J
1,
#870003
05
#880002
0,
#890002
b10 D
0L
1,
#890003
0.
#900002
0,
#910002
1;
1'
1:
0H
0K
1,
#910003
1.
#920002
0,
#930002
17
0E
1K
1,
#940002
0,
#950002
07
b10xxxxxxxxxxxxxxxxxxxxxxxx &
b10xxxxxxxxxxxxxxxxxxxxxxxx @
0>
1E
1,
#950003
15
#960002
0,
#970002
0'
0:
1>
1L
b10 )
b10 ?
1,
#970004
b10 (
b10 P
b10 *
b10 M
#980002
0,
#990002
0;
1H
1,
#990003
b11 !
b11 O
b11 0
b11 N
#990005
b11 -
b11 8
#1000002
0,
#1010002
b11 J
1,
#1010003
05
#1020002
0,
#1030002
b11 D
0L
1,
#1030003
0.
#1040002
0,
#1050002
1;
1'
1:
0H
0K
1,
#1050003
1.
#1060002
0,
#1070002
17
0E
1K
1,
#1080002
0,
#1090002
07
0>
1E
b11xxxxxxxxxxxxxxxxxxxxxxxx &
b11xxxxxxxxxxxxxxxxxxxxxxxx @
1,
#1090003
15
#1100002
0,
#1110002
0'
0:
b11 )
b11 ?
1>
1L
1,
#1110004
b11 (
b11 P
b11 *
b11 M
#1120002
0,
#1130002
0;
1H
1,
#1130003
b100 !
b100 O
b100 0
b100 N
#1130005
b100 -
b100 8
#1140002
0,
#1150002
b100 J
1,
#1150003
05
#1160002
0,
#1170002
b100 D
0L
1,
#1170003
0.
#1180002
0,
#1190002
1;
1'
1:
0H
0K
1,
#1190003
1.
#1200002
0,
#1210002
17
0E
1K
1,
#1220002
0,
#1230002
07
b100xxxxxxxxxxxxxxxxxxxxxxxx &
b100xxxxxxxxxxxxxxxxxxxxxxxx @
0>
1E
1,
#1230003
15
#1240002
0,
#1250002
0'
0:
1>
1L
b100 )
b100 ?
1,
#1250004
b100 (
b100 P
b100 *
b100 M
