xula2_fpga/parallel/tb/vcd/wbdeppsimple1.vcd
$date
	Mon May  2 08:29:24 2016
$end
$version
	Icarus Verilog
$end
$timescale
	10ps
$end
$scope module tb_wbdeppsimple1 $end
$var wire 32 ! o_wb_data [31:0] $end
$var wire 1 " o_wb_stall $end
$var wire 8 # to_depp [7:0] $end
$var wire 1 $ o_wb_we $end
$var wire 1 % o_wb_stb $end
$var wire 1 & o_wb_cyc $end
$var wire 32 ' o_wb_addr [31:0] $end
$var wire 1 ( o_wb_ack $end
$var wire 1 ) o_wait $end
$var wire 8 * o_depp [7:0] $end
$var wire 1 + o_b7 $end
$var wire 1 , o_b6 $end
$var wire 1 - o_b5 $end
$var wire 1 . o_b4 $end
$var wire 1 / o_b3 $end
$var wire 1 0 o_b2 $end
$var wire 1 1 o_b1 $end
$var wire 1 2 o_b0 $end
$var reg 8 3 fr_depp [7:0] $end
$var reg 1 4 i_astb_n $end
$var reg 1 5 i_b0 $end
$var reg 1 6 i_b1 $end
$var reg 1 7 i_b2 $end
$var reg 1 8 i_b3 $end
$var reg 1 9 i_b4 $end
$var reg 1 : i_b5 $end
$var reg 1 ; i_b6 $end
$var reg 1 < i_b7 $end
$var reg 1 = i_clk $end
$var reg 8 > i_depp [7:0] $end
$var reg 1 ? i_dstb_n $end
$var reg 1 @ i_int $end
$var reg 1 A i_wb_ack $end
$var reg 1 B i_wb_cyc $end
$var reg 32 C i_wb_data [31:0] $end
$var reg 1 D i_wb_err $end
$var reg 1 E i_wb_stall $end
$var reg 1 F i_wb_stb $end
$var reg 1 G i_wb_we $end
$var reg 1 H i_write_n $end
$scope module dut_wbdeppsimple $end
$var wire 1 I astb $end
$var wire 1 J dstb $end
$var wire 1 4 i_astb_n $end
$var wire 1 = i_clk $end
$var wire 8 K i_depp [7:0] $end
$var wire 1 ? i_dstb_n $end
$var wire 1 @ i_int $end
$var wire 1 A i_wb_ack $end
$var wire 32 L i_wb_data [31:0] $end
$var wire 1 D i_wb_err $end
$var wire 1 E i_wb_stall $end
$var wire 1 H i_write_n $end
$var wire 1 ) o_wait $end
$var wire 1 M w_wait $end
$var wire 1 N w_write $end
$var reg 8 O addr [7:0] $end
$var reg 1 P l_astb_n $end
$var reg 1 Q l_dstb_n $end
$var reg 8 R o_depp [7:0] $end
$var reg 32 S o_wb_addr [31:0] $end
$var reg 1 & o_wb_cyc $end
$var reg 32 T o_wb_data [31:0] $end
$var reg 1 % o_wb_stb $end
$var reg 1 $ o_wb_we $end
$var reg 1 U r_astb_n $end
$var reg 32 V r_data [31:0] $end
$var reg 8 W r_depp [7:0] $end
$var reg 1 X r_dstb_n $end
$var reg 1 Y r_err $end
$var reg 1 Z r_int $end
$var reg 1 [ r_write_n $end
$var reg 1 \ x_astb_n $end
$var reg 8 ] x_depp [7:0] $end
$var reg 1 ^ x_dstb_n $end
$var reg 1 _ x_write_n $end
$upscope $end
$scope module tb_memdev $end
$var wire 1 = i_clk $end
$var wire 15 ` i_wb_addr [14:0] $end
$var wire 1 B i_wb_cyc $end
$var wire 32 a i_wb_data [31:0] $end
$var wire 1 F i_wb_stb $end
$var wire 1 G i_wb_we $end
$var wire 1 " o_wb_stall $end
$var reg 1 ( o_wb_ack $end
$var reg 32 b o_wb_data [31:0] $end
$upscope $end
$scope module tb_rpi2B_io $end
$var wire 8 c fr_depp [7:0] $end
$var wire 1 5 i_b0 $end
$var wire 1 6 i_b1 $end
$var wire 1 7 i_b2 $end
$var wire 1 8 i_b3 $end
$var wire 1 9 i_b4 $end
$var wire 1 : i_b5 $end
$var wire 1 ; i_b6 $end
$var wire 1 < i_b7 $end
$var wire 8 d to_depp [7:0] $end
$var wire 1 + o_b7 $end
$var wire 1 , o_b6 $end
$var wire 1 - o_b5 $end
$var wire 1 . o_b4 $end
$var wire 1 / o_b3 $end
$var wire 1 0 o_b2 $end
$var wire 1 1 o_b1 $end
$var wire 1 2 o_b0 $end
$upscope $end
$upscope $end
$enddefinitions $end
#0
$dumpvars
bx d
bx c
bx b
bx a
b0z `
x_
1^
bx ]
1\
x[
0Z
0Y
1X
bx W
bx V
1U
bx T
bx S
bx R
1Q
1P
b0 O
xN
0M
bx L
bx K
0J
0I
xH
xG
xF
xE
xD
bx C
xB
xA
x@
x?
bx >
x=
x<
x;
x:
x9
x8
x7
x6
x5
x4
bx 3
x2
x1
x0
x/
x.
x-
x,
x+
bx *
0)
x(
bx '
0&
0%
x$
bx #
0"
bx !
$end
#10002
1)
1M
0^
0\
0_
b0 ]
0(
02
01
00
0/
0.
0-
0,
0+
0<
0;
0:
09
08
07
06
b0 #
b0 d
05
b0 3
b0 c
0@
b0 C
b0 L
b0 a
0D
0E
0A
0G
0F
0B
b0 >
b0 K
0H
0?
04
1=
#20002
0=
#30002
1J
1I
1N
0X
0U
0[
b0 W
1=
#40002
0=
#50002
0J
0I
0Q
0P
b0xxxxxxxxxxxxxxxxxxxxxxxx '
b0xxxxxxxxxxxxxxxxxxxxxxxx S
1=
#60002
0=
#70002
b0 *
b0 R
1=
#80002
0=
#90002
1=
#100002
0=
#110002
1=
#120002
0=
#130002
1=
#140002
0=
#150002
1=
#160002
0=
#170002
1=
#180002
0=
#190002
1=
#200002
0=
#210002
1=
#220002
0=
#230002
1=
#240002
0=
#250002
1=
#260002
0=
#270002
1=
#280002
0=
#290002
1=
#300002
0=
#310002
1=
#320002
0=
#330002
1=
#340002
0=
#350002
1=
#360002
0=
#370002
1=
#380002
0=
#390002
1=
#400002
0=
#410002
1=
#420002
0=
#430002
1=
#440002
0=
#450002
1=
#460002
0=
#470002
1=
#480002
0=
#490002
1=
#500002
0=
#510002
1=
#520002
0=
#530002
1=
#540002
0=
#550002
1=
#560002
0=
#570002
1=
#580002
0=
#590002
1=
#600002
0=
#610002
1=
#620002
0=
#630002
1=
#640002
0=
#650002
1=
#660002
0=
#670002
1=
#680002
0=
#690002
1=
#700002
0=
#710002
1=
#720002
0=
#730002
1=
#740002
0=
#750002
1=
#760002
0=
#770002
1=
#780002
0=
#790002
1=
#800002
0=
#810002
1=
#820002
0=
#830002
1=
#840002
0=
#850002
1=
#860002
0=
#870002
1=
#880002
0=
#890002
1=
#900002
0=
#910002
1=
#920002
0=
#930002
1=
#940002
0=
#950002
1=
#960002
0=
#970002
1=
#980002
0=
#990002
1=
#1000002
0=
#1010002
1=
#1020002
0=
#1030002
1=
#1040002
0=
#1050002
1=
#1060002
0=
#1070002
1=
#1080002
0=
#1090002
1=
#1100002
0=
#1110002
1=
#1120002
0=
#1130002
1=
#1140002
0=
#1150002
1=
#1160002
0=
#1170002
1=
#1180002
0=
#1190002
1=
#1200002
0=
#1210002
1=
#1220002
0=
#1230002
1=
#1240002
0=
#1250002
1=
#1260002
0=
#1270002
1=
#1280002
0=
#1290002
1=
#1300002
0=
#1310002
1=
#1320002
0=
#1330002
1=
#1340002
0=
#1350002
1=
#1360002
0=
#1370002
1=
#1380002
0=
#1390002
1=
#1400002
0=
#1410002
1=
#1420002
0=
#1430002
1=
#1440002
0=
#1450002
1=
#1460002
0=
#1470002
1=
#1480002
0=
#1490002
1=
#1500002
0=
#1510002
1=
#1520002
0=
#1530002
1=
#1540002
0=
#1550002
1=
#1560002
0=
#1570002
1=
#1580002
0=
#1590002
1=
#1600002
0=
#1610002
1=
#1620002
0=
#1630002
1=
#1640002
0=
#1650002
1=
#1660002
0=
#1670002
1=
#1680002
0=
#1690002
1=
#1700002
0=
#1710002
1=
#1720002
0=
#1730002
1=
#1740002
0=
#1750002
1=
#1760002
0=
#1770002
1=
#1780002
0=
#1790002
1=
#1800002
0=
#1810002
1=
#1820002
0=
#1830002
1=
#1840002
0=
#1850002
1=
#1860002
0=
#1870002
1=
#1880002
0=
#1890002
1=
#1900002
0=
#1910002
1=
#1920002
0=
#1930002
1=
#1940002
0=
#1950002
1=
#1960002
0=
#1970002
1=
#1980002
0=
#1990002
1=
#2000002
0=
#2010002
1=
#2020002
0=
#2030002
1=
#2030003
12
b1 3
b1 c
#2040002
0=
#2050002
1=
#2050003
02
11
b10 3
b10 c
#2060002
0=
#2070002
1=
#2070003
12
b11 3
b11 c
#2080002
0=
#2090002
1=
#2090003
02
01
10
b100 3
b100 c
#2100002
0=
#2110002
1=
#2110003
12
b101 3
b101 c
#2120002
0=
#2130002
1=
#2130003
02
11
b110 3
b110 c
#2140002
0=
#2150002
1=
#2150003
12
b111 3
b111 c
#2160002
0=
#2170002
1=
#2170003
02
01
00
1/
b1000 3
b1000 c
#2180002
0=
#2190002
1=
#2190003
12
b1001 3
b1001 c
#2200002
0=
#2210002
1=
#2210003
02
11
b1010 3
b1010 c
#2220002
0=
#2230002
1=
#2230003
12
b1011 3
b1011 c
#2240002
0=
#2250002
1=
#2250003
02
01
10
b1100 3
b1100 c
#2260002
0=
#2270002
1=
#2270003
12
b1101 3
b1101 c
#2280002
0=
#2290002
1=
#2290003
02
11
b1110 3
b1110 c
#2300002
0=
#2310002
1=
#2310003
12
b1111 3
b1111 c
#2320002
0=
#2330002
1=
#2330003
02
01
00
0/
1.
b10000 3
b10000 c
#2340002
0=
#2350002
1=
#2350003
12
b10001 3
b10001 c
#2360002
0=
#2370002
1=
#2370003
02
11
b10010 3
b10010 c
#2380002
0=
#2390002
1=
#2390003
12
b10011 3
b10011 c
#2400002
0=
#2410002
1=
#2410003
02
01
10
b10100 3
b10100 c
#2420002
0=
#2430002
1=
#2430003
12
b10101 3
b10101 c
#2440002
0=
#2450002
1=
#2450003
02
11
b10110 3
b10110 c
#2460002
0=
#2470002
1=
#2470003
12
b10111 3
b10111 c
#2480002
0=
#2490002
1=
#2490003
02
01
00
1/
b11000 3
b11000 c
#2500002
0=
#2510002
1=
#2510003
12
b11001 3
b11001 c
#2520002
0=
#2530002
1=
#2530003
02
11
b11010 3
b11010 c
#2540002
0=
#2550002
1=
#2550003
12
b11011 3
b11011 c
#2560002
0=
#2570002
1=
#2570003
02
01
10
b11100 3
b11100 c
#2580002
0=
#2590002
1=
#2590003
12
b11101 3
b11101 c
#2600002
0=
#2610002
1=
#2610003
02
11
b11110 3
b11110 c
#2620002
0=
#2630002
1=
#2630003
12
b11111 3
b11111 c
#2640002
0=
#2650002
1=
#2650003
02
01
00
0/
0.
1-
b100000 3
b100000 c
#2660002
0=
#2670002
1=
#2670003
12
b100001 3
b100001 c
#2680002
0=
#2690002
1=
#2690003
02
11
b100010 3
b100010 c
#2700002
0=
#2710002
1=
#2710003
12
b100011 3
b100011 c
#2720002
0=
#2730002
1=
#2730003
02
01
10
b100100 3
b100100 c
#2740002
0=
#2750002
1=
#2750003
12
b100101 3
b100101 c
#2760002
0=
#2770002
1=
#2770003
02
11
b100110 3
b100110 c
#2780002
0=
#2790002
1=
#2790003
12
b100111 3
b100111 c
#2800002
0=
#2810002
1=
#2810003
02
01
00
1/
b101000 3
b101000 c
#2820002
0=
#2830002
1=
#2830003
12
b101001 3
b101001 c
#2840002
0=
#2850002
1=
#2850003
02
11
b101010 3
b101010 c
#2860002
0=
#2870002
1=
#2870003
12
b101011 3
b101011 c
#2880002
0=
#2890002
1=
#2890003
02
01
10
b101100 3
b101100 c
#2900002
0=
#2910002
1=
#2910003
12
b101101 3
b101101 c
#2920002
0=
#2930002
1=
#2930003
02
11
b101110 3
b101110 c
#2940002
0=
#2950002
1=
#2950003
12
b101111 3
b101111 c
#2960002
0=
#2970002
1=
#2970003
02
01
00
0/
1.
b110000 3
b110000 c
#2980002
0=
#2990002
1=
#2990003
12
b110001 3
b110001 c
#3000002
0=
#3010002
1=
#3010003
02
11
b110010 3
b110010 c
#3020002
0=
#3030002
1=
#3030003
12
b110011 3
b110011 c
#3040002
0=
#3050002
1=
#3050003
02
01
10
b110100 3
b110100 c
#3060002
0=
#3070002
1=
#3070003
12
b110101 3
b110101 c
#3080002
0=
#3090002
1=
#3090003
02
11
b110110 3
b110110 c
#3100002
0=
#3110002
1=
#3110003
12
b110111 3
b110111 c
#3120002
0=
#3130002
1=
#3130003
02
01
00
1/
b111000 3
b111000 c
#3140002
0=
#3150002
1=
#3150003
12
b111001 3
b111001 c
#3160002
0=
#3170002
1=
#3170003
02
11
b111010 3
b111010 c
#3180002
0=
#3190002
1=
#3190003
12
b111011 3
b111011 c
#3200002
0=
#3210002
1=
#3210003
02
01
10
b111100 3
b111100 c
#3220002
0=
#3230002
1=
#3230003
12
b111101 3
b111101 c
#3240002
0=
#3250002
1=
#3250003
02
11
b111110 3
b111110 c
#3260002
0=
#3270002
1=
#3270003
12
b111111 3
b111111 c
#3280002
0=
#3290002
1=
#3290003
02
01
00
0/
0.
0-
1,
b1000000 3
b1000000 c
#3300002
0=
#3310002
1=
#3310003
12
b1000001 3
b1000001 c
#3320002
0=
#3330002
1=
#3330003
02
11
b1000010 3
b1000010 c
#3340002
0=
#3350002
1=
#3350003
12
b1000011 3
b1000011 c
#3360002
0=
#3370002
1=
#3370003
02
01
10
b1000100 3
b1000100 c
#3380002
0=
#3390002
1=
#3390003
12
b1000101 3
b1000101 c
#3400002
0=
#3410002
1=
#3410003
02
11
b1000110 3
b1000110 c
#3420002
0=
#3430002
1=
#3430003
12
b1000111 3
b1000111 c
#3440002
0=
#3450002
1=
#3450003
02
01
00
1/
b1001000 3
b1001000 c
#3460002
0=
#3470002
1=
#3470003
12
b1001001 3
b1001001 c
#3480002
0=
#3490002
1=
#3490003
02
11
b1001010 3
b1001010 c
#3500002
0=
#3510002
1=
#3510003
12
b1001011 3
b1001011 c
#3520002
0=
#3530002
1=
#3530003
02
01
10
b1001100 3
b1001100 c
#3540002
0=
#3550002
1=
#3550003
12
b1001101 3
b1001101 c
#3560002
0=
#3570002
1=
#3570003
02
11
b1001110 3
b1001110 c
#3580002
0=
#3590002
1=
#3590003
12
b1001111 3
b1001111 c
#3600002
0=
#3610002
1=
#3610003
02
01
00
0/
1.
b1010000 3
b1010000 c
#3620002
0=
#3630002
1=
#3630003
12
b1010001 3
b1010001 c
#3640002
0=
#3650002
1=
#3650003
02
11
b1010010 3
b1010010 c
#3660002
0=
#3670002
1=
#3670003
12
b1010011 3
b1010011 c
#3680002
0=
#3690002
1=
#3690003
02
01
10
b1010100 3
b1010100 c
#3700002
0=
#3710002
1=
#3710003
12
b1010101 3
b1010101 c
#3720002
0=
#3730002
1=
#3730003
02
11
b1010110 3
b1010110 c
#3740002
0=
#3750002
1=
#3750003
12
b1010111 3
b1010111 c
#3760002
0=
#3770002
1=
#3770003
02
01
00
1/
b1011000 3
b1011000 c
#3780002
0=
#3790002
1=
#3790003
12
b1011001 3
b1011001 c
#3800002
0=
#3810002
1=
#3810003
02
11
b1011010 3
b1011010 c
#3820002
0=
#3830002
1=
#3830003
12
b1011011 3
b1011011 c
#3840002
0=
#3850002
1=
#3850003
02
01
10
b1011100 3
b1011100 c
#3860002
0=
#3870002
1=
#3870003
12
b1011101 3
b1011101 c
#3880002
0=
#3890002
1=
#3890003
02
11
b1011110 3
b1011110 c
#3900002
0=
#3910002
1=
#3910003
12
b1011111 3
b1011111 c
#3920002
0=
#3930002
1=
#3930003
02
01
00
0/
0.
1-
b1100000 3
b1100000 c
#3940002
0=
#3950002
1=
#3950003
12
b1100001 3
b1100001 c
#3960002
0=
#3970002
1=
#3970003
02
11
b1100010 3
b1100010 c
#3980002
0=
#3990002
1=
#3990003
12
b1100011 3
b1100011 c
#4000002
0=
#4010002
1=
#4010003
02
01
10
b1100100 3
b1100100 c
#4020002
0=
#4030002
1=
#4030003
12
b1100101 3
b1100101 c
#4040002
0=
#4050002
1=
#4050003
02
11
b1100110 3
b1100110 c
#4060002
0=
#4070002
1=
#4070003
12
b1100111 3
b1100111 c
#4080002
0=
#4090002
1=
#4090003
02
01
00
1/
b1101000 3
b1101000 c
#4100002
0=
#4110002
1=
#4110003
12
b1101001 3
b1101001 c
#4120002
0=
#4130002
1=
#4130003
02
11
b1101010 3
b1101010 c
#4140002
0=
#4150002
1=
#4150003
12
b1101011 3
b1101011 c
#4160002
0=
#4170002
1=
#4170003
02
01
10
b1101100 3
b1101100 c
#4180002
0=
#4190002
1=
#4190003
12
b1101101 3
b1101101 c
#4200002
0=
#4210002
1=
#4210003
02
11
b1101110 3
b1101110 c
#4220002
0=
#4230002
1=
#4230003
12
b1101111 3
b1101111 c
#4240002
0=
#4250002
1=
#4250003
02
01
00
0/
1.
b1110000 3
b1110000 c
#4260002
0=
#4270002
1=
#4270003
12
b1110001 3
b1110001 c
#4280002
0=
#4290002
1=
#4290003
02
11
b1110010 3
b1110010 c
#4300002
0=
#4310002
1=
#4310003
12
b1110011 3
b1110011 c
#4320002
0=
#4330002
1=
#4330003
02
01
10
b1110100 3
b1110100 c
#4340002
0=
#4350002
1=
#4350003
12
b1110101 3
b1110101 c
#4360002
0=
#4370002
1=
#4370003
02
11
b1110110 3
b1110110 c
#4380002
0=
#4390002
1=
#4390003
12
b1110111 3
b1110111 c
#4400002
0=
#4410002
1=
#4410003
02
01
00
1/
b1111000 3
b1111000 c
#4420002
0=
#4430002
1=
#4430003
12
b1111001 3
b1111001 c
#4440002
0=
#4450002
1=
#4450003
02
11
b1111010 3
b1111010 c
#4460002
0=
#4470002
1=
#4470003
12
b1111011 3
b1111011 c
#4480002
0=
#4490002
1=
#4490003
02
01
10
b1111100 3
b1111100 c
#4500002
0=
#4510002
1=
#4510003
12
b1111101 3
b1111101 c
#4520002
0=
#4530002
1=
#4530003
02
11
b1111110 3
b1111110 c
#4540002
0=
#4550002
1=
#4550003
12
b1111111 3
b1111111 c
#4560002
0=
#4570002
1=
#4570003
02
01
00
0/
0.
0-
0,
1+
b10000000 3
b10000000 c
#4580002
0=
#4590002
1=
#4590003
12
b10000001 3
b10000001 c
#4600002
0=
#4610002
1=
#4610003
02
11
b10000010 3
b10000010 c
#4620002
0=
#4630002
1=
#4630003
12
b10000011 3
b10000011 c
#4640002
0=
#4650002
1=
#4650003
02
01
10
b10000100 3
b10000100 c
#4660002
0=
#4670002
1=
#4670003
12
b10000101 3
b10000101 c
#4680002
0=
#4690002
1=
#4690003
02
11
b10000110 3
b10000110 c
#4700002
0=
#4710002
1=
#4710003
12
b10000111 3
b10000111 c
#4720002
0=
#4730002
1=
#4730003
02
01
00
1/
b10001000 3
b10001000 c
#4740002
0=
#4750002
1=
#4750003
12
b10001001 3
b10001001 c
#4760002
0=
#4770002
1=
#4770003
02
11
b10001010 3
b10001010 c
#4780002
0=
#4790002
1=
#4790003
12
b10001011 3
b10001011 c
#4800002
0=
#4810002
1=
#4810003
02
01
10
b10001100 3
b10001100 c
#4820002
0=
#4830002
1=
#4830003
12
b10001101 3
b10001101 c
#4840002
0=
#4850002
1=
#4850003
02
11
b10001110 3
b10001110 c
#4860002
0=
#4870002
1=
#4870003
12
b10001111 3
b10001111 c
#4880002
0=
#4890002
1=
#4890003
02
01
00
0/
1.
b10010000 3
b10010000 c
#4900002
0=
#4910002
1=
#4910003
12
b10010001 3
b10010001 c
#4920002
0=
#4930002
1=
#4930003
02
11
b10010010 3
b10010010 c
#4940002
0=
#4950002
1=
#4950003
12
b10010011 3
b10010011 c
#4960002
0=
#4970002
1=
#4970003
02
01
10
b10010100 3
b10010100 c
#4980002
0=
#4990002
1=
#4990003
12
b10010101 3
b10010101 c
#5000002
0=
#5010002
1=
#5010003
02
11
b10010110 3
b10010110 c
#5020002
0=
#5030002
1=
#5030003
12
b10010111 3
b10010111 c
#5040002
0=
#5050002
1=
#5050003
02
01
00
1/
b10011000 3
b10011000 c
#5060002
0=
#5070002
1=
#5070003
12
b10011001 3
b10011001 c
#5080002
0=
#5090002
1=
#5090003
02
11
b10011010 3
b10011010 c
#5100002
0=
#5110002
1=
#5110003
12
b10011011 3
b10011011 c
#5120002
0=
#5130002
1=
#5130003
02
01
10
b10011100 3
b10011100 c
#5140002
0=
#5150002
1=
#5150003
12
b10011101 3
b10011101 c
#5160002
0=
#5170002
1=
#5170003
02
11
b10011110 3
b10011110 c
#5180002
0=
#5190002
1=
#5190003
12
b10011111 3
b10011111 c
#5200002
0=
#5210002
1=
#5210003
02
01
00
0/
0.
1-
b10100000 3
b10100000 c
#5220002
0=
#5230002
1=
#5230003
12
b10100001 3
b10100001 c
#5240002
0=
#5250002
1=
#5250003
02
11
b10100010 3
b10100010 c
#5260002
0=
#5270002
1=
#5270003
12
b10100011 3
b10100011 c
#5280002
0=
#5290002
1=
#5290003
02
01
10
b10100100 3
b10100100 c
#5300002
0=
#5310002
1=
#5310003
12
b10100101 3
b10100101 c
#5320002
0=
#5330002
1=
#5330003
02
11
b10100110 3
b10100110 c
#5340002
0=
#5350002
1=
#5350003
12
b10100111 3
b10100111 c
#5360002
0=
#5370002
1=
#5370003
02
01
00
1/
b10101000 3
b10101000 c
#5380002
0=
#5390002
1=
#5390003
12
b10101001 3
b10101001 c
#5400002
0=
#5410002
1=
#5410003
02
11
b10101010 3
b10101010 c
#5420002
0=
#5430002
1=
#5430003
12
b10101011 3
b10101011 c
#5440002
0=
#5450002
1=
#5450003
02
01
10
b10101100 3
b10101100 c
#5460002
0=
#5470002
1=
#5470003
12
b10101101 3
b10101101 c
#5480002
0=
#5490002
1=
#5490003
02
11
b10101110 3
b10101110 c
#5500002
0=
#5510002
1=
#5510003
12
b10101111 3
b10101111 c
#5520002
0=
#5530002
1=
#5530003
02
01
00
0/
1.
b10110000 3
b10110000 c
#5540002
0=
#5550002
1=
#5550003
12
b10110001 3
b10110001 c
#5560002
0=
#5570002
1=
#5570003
02
11
b10110010 3
b10110010 c
#5580002
0=
#5590002
1=
#5590003
12
b10110011 3
b10110011 c
#5600002
0=
#5610002
1=
#5610003
02
01
10
b10110100 3
b10110100 c
#5620002
0=
#5630002
1=
#5630003
12
b10110101 3
b10110101 c
#5640002
0=
#5650002
1=
#5650003
02
11
b10110110 3
b10110110 c
#5660002
0=
#5670002
1=
#5670003
12
b10110111 3
b10110111 c
#5680002
0=
#5690002
1=
#5690003
02
01
00
1/
b10111000 3
b10111000 c
#5700002
0=
#5710002
1=
#5710003
12
b10111001 3
b10111001 c
#5720002
0=
#5730002
1=
#5730003
02
11
b10111010 3
b10111010 c
#5740002
0=
#5750002
1=
#5750003
12
b10111011 3
b10111011 c
#5760002
0=
#5770002
1=
#5770003
02
01
10
b10111100 3
b10111100 c
#5780002
0=
#5790002
1=
#5790003
12
b10111101 3
b10111101 c
#5800002
0=
#5810002
1=
#5810003
02
11
b10111110 3
b10111110 c
#5820002
0=
#5830002
1=
#5830003
12
b10111111 3
b10111111 c
#5840002
0=
#5850002
1=
#5850003
02
01
00
0/
0.
0-
1,
b11000000 3
b11000000 c
#5860002
0=
#5870002
1=
#5870003
12
b11000001 3
b11000001 c
#5880002
0=
#5890002
1=
#5890003
02
11
b11000010 3
b11000010 c
#5900002
0=
#5910002
1=
#5910003
12
b11000011 3
b11000011 c
#5920002
0=
#5930002
1=
#5930003
02
01
10
b11000100 3
b11000100 c
#5940002
0=
#5950002
1=
#5950003
12
b11000101 3
b11000101 c
#5960002
0=
#5970002
1=
#5970003
02
11
b11000110 3
b11000110 c
#5980002
0=
#5990002
1=
#5990003
12
b11000111 3
b11000111 c
#6000002
0=
#6010002
1=
#6010003
02
01
00
1/
b11001000 3
b11001000 c
#6020002
0=
#6030002
1=
#6030003
12
b11001001 3
b11001001 c
#6040002
0=
#6050002
1=
#6050003
02
11
b11001010 3
b11001010 c
#6060002
0=
#6070002
1=
#6070003
12
b11001011 3
b11001011 c
#6080002
0=
#6090002
1=
#6090003
02
01
10
b11001100 3
b11001100 c
#6100002
0=
#6110002
1=
#6110003
12
b11001101 3
b11001101 c
#6120002
0=
#6130002
1=
#6130003
02
11
b11001110 3
b11001110 c
#6140002
0=
#6150002
1=
#6150003
12
b11001111 3
b11001111 c
#6160002
0=
#6170002
1=
#6170003
02
01
00
0/
1.
b11010000 3
b11010000 c
#6180002
0=
#6190002
1=
#6190003
12
b11010001 3
b11010001 c
#6200002
0=
#6210002
1=
#6210003
02
11
b11010010 3
b11010010 c
#6220002
0=
#6230002
1=
#6230003
12
b11010011 3
b11010011 c
#6240002
0=
#6250002
1=
#6250003
02
01
10
b11010100 3
b11010100 c
#6260002
0=
#6270002
1=
#6270003
12
b11010101 3
b11010101 c
#6280002
0=
#6290002
1=
#6290003
02
11
b11010110 3
b11010110 c
#6300002
0=
#6310002
1=
#6310003
12
b11010111 3
b11010111 c
#6320002
0=
#6330002
1=
#6330003
02
01
00
1/
b11011000 3
b11011000 c
#6340002
0=
#6350002
1=
#6350003
12
b11011001 3
b11011001 c
#6360002
0=
#6370002
1=
#6370003
02
11
b11011010 3
b11011010 c
#6380002
0=
#6390002
1=
#6390003
12
b11011011 3
b11011011 c
#6400002
0=
#6410002
1=
#6410003
02
01
10
b11011100 3
b11011100 c
#6420002
0=
#6430002
1=
#6430003
12
b11011101 3
b11011101 c
#6440002
0=
#6450002
1=
#6450003
02
11
b11011110 3
b11011110 c
#6460002
0=
#6470002
1=
#6470003
12
b11011111 3
b11011111 c
#6480002
0=
#6490002
1=
#6490003
02
01
00
0/
0.
1-
b11100000 3
b11100000 c
#6500002
0=
#6510002
1=
#6510003
12
b11100001 3
b11100001 c
#6520002
0=
#6530002
1=
#6530003
02
11
b11100010 3
b11100010 c
#6540002
0=
#6550002
1=
#6550003
12
b11100011 3
b11100011 c
#6560002
0=
#6570002
1=
#6570003
02
01
10
b11100100 3
b11100100 c
#6580002
0=
#6590002
1=
#6590003
12
b11100101 3
b11100101 c
#6600002
0=
#6610002
1=
#6610003
02
11
b11100110 3
b11100110 c
#6620002
0=
#6630002
1=
#6630003
12
b11100111 3
b11100111 c
#6640002
0=
#6650002
1=
#6650003
02
01
00
1/
b11101000 3
b11101000 c
#6660002
0=
#6670002
1=
#6670003
12
b11101001 3
b11101001 c
#6680002
0=
#6690002
1=
#6690003
02
11
b11101010 3
b11101010 c
#6700002
0=
#6710002
1=
#6710003
12
b11101011 3
b11101011 c
#6720002
0=
#6730002
1=
#6730003
02
01
10
b11101100 3
b11101100 c
#6740002
0=
#6750002
1=
#6750003
12
b11101101 3
b11101101 c
#6760002
0=
#6770002
1=
#6770003
02
11
b11101110 3
b11101110 c
#6780002
0=
#6790002
1=
#6790003
12
b11101111 3
b11101111 c
#6800002
0=
#6810002
1=
#6810003
02
01
00
0/
1.
b11110000 3
b11110000 c
#6820002
0=
#6830002
1=
#6830003
12
b11110001 3
b11110001 c
#6840002
0=
#6850002
1=
#6850003
02
11
b11110010 3
b11110010 c
#6860002
0=
#6870002
1=
#6870003
12
b11110011 3
b11110011 c
#6880002
0=
#6890002
1=
#6890003
02
01
10
b11110100 3
b11110100 c
#6900002
0=
#6910002
1=
#6910003
12
b11110101 3
b11110101 c
#6920002
0=
#6930002
1=
#6930003
02
11
b11110110 3
b11110110 c
#6940002
0=
#6950002
1=
#6950003
12
b11110111 3
b11110111 c
#6960002
0=
#6970002
1=
#6970003
02
01
00
1/
b11111000 3
b11111000 c
#6980002
0=
#6990002
1=
#6990003
12
b11111001 3
b11111001 c
#7000002
0=
#7010002
1=
#7010003
02
11
b11111010 3
b11111010 c
#7020002
0=
#7030002
1=
#7030003
12
b11111011 3
b11111011 c
#7040002
0=
#7050002
1=
#7050003
02
01
10
b11111100 3
b11111100 c
#7060002
0=
#7070002
1=
#7070003
12
b11111101 3
b11111101 c
#7080002
0=
#7090002
1=
#7090003
02
11
b11111110 3
b11111110 c
#7100002
0=
#7110002
1=
#7110003
12
b11111111 3
b11111111 c
