xula2_fpga/parallel/tb/vcd/wbdeppsimple1.vcd
$date
	Sun May  1 11:33:20 2016
$end
$version
	Icarus Verilog
$end
$timescale
	10ps
$end
$scope module tb_wbdeppsimple1 $end
$var wire 8 ! t_depp [7:0] $end
$var wire 1 " o_wb_we $end
$var wire 1 # o_wb_stb $end
$var wire 32 $ o_wb_data [31:0] $end
$var wire 1 % o_wb_cyc $end
$var wire 32 & o_wb_addr [31:0] $end
$var wire 1 ' o_wait $end
$var wire 8 ( o_depp [7:0] $end
$var wire 1 ) o_b7 $end
$var wire 1 * o_b6 $end
$var wire 1 + o_b5 $end
$var wire 1 , o_b4 $end
$var wire 1 - o_b3 $end
$var wire 1 . o_b2 $end
$var wire 1 / o_b1 $end
$var wire 1 0 o_b0 $end
$var reg 1 1 i_astb_n $end
$var reg 1 2 i_b0 $end
$var reg 1 3 i_b1 $end
$var reg 1 4 i_b2 $end
$var reg 1 5 i_b3 $end
$var reg 1 6 i_b4 $end
$var reg 1 7 i_b5 $end
$var reg 1 8 i_b6 $end
$var reg 1 9 i_b7 $end
$var reg 1 : i_clk $end
$var reg 8 ; i_depp [7:0] $end
$var reg 1 < i_dstb_n $end
$var reg 1 = i_int $end
$var reg 1 > i_wb_ack $end
$var reg 32 ? i_wb_data [31:0] $end
$var reg 1 @ i_wb_err $end
$var reg 1 A i_wb_stall $end
$var reg 1 B i_write_n $end
$var reg 8 C o_para [7:0] $end
$scope module dut_wbdeppsimple $end
$var wire 1 D astb $end
$var wire 1 E dstb $end
$var wire 1 1 i_astb_n $end
$var wire 1 : i_clk $end
$var wire 8 F i_depp [7:0] $end
$var wire 1 < i_dstb_n $end
$var wire 1 = i_int $end
$var wire 1 > i_wb_ack $end
$var wire 32 G i_wb_data [31:0] $end
$var wire 1 @ i_wb_err $end
$var wire 1 A i_wb_stall $end
$var wire 1 B i_write_n $end
$var wire 1 ' o_wait $end
$var wire 1 H w_wait $end
$var wire 1 I w_write $end
$var reg 8 J addr [7:0] $end
$var reg 1 K l_astb_n $end
$var reg 1 L l_dstb_n $end
$var reg 8 M o_depp [7:0] $end
$var reg 32 N o_wb_addr [31:0] $end
$var reg 1 % o_wb_cyc $end
$var reg 32 O o_wb_data [31:0] $end
$var reg 1 # o_wb_stb $end
$var reg 1 " o_wb_we $end
$var reg 1 P r_astb_n $end
$var reg 32 Q r_data [31:0] $end
$var reg 8 R r_depp [7:0] $end
$var reg 1 S r_dstb_n $end
$var reg 1 T r_err $end
$var reg 1 U r_int $end
$var reg 1 V r_write_n $end
$var reg 1 W x_astb_n $end
$var reg 8 X x_depp [7:0] $end
$var reg 1 Y x_dstb_n $end
$var reg 1 Z x_write_n $end
$upscope $end
$scope module tb_dr_wbdepp $end
$var wire 1 2 i_b0 $end
$var wire 1 3 i_b1 $end
$var wire 1 4 i_b2 $end
$var wire 1 5 i_b3 $end
$var wire 1 6 i_b4 $end
$var wire 1 7 i_b5 $end
$var wire 1 8 i_b6 $end
$var wire 1 9 i_b7 $end
$var wire 1 : i_clk $end
$var wire 8 [ o_para [7:0] $end
$var reg 1 0 o_b0 $end
$var reg 1 / o_b1 $end
$var reg 1 . o_b2 $end
$var reg 1 - o_b3 $end
$var reg 1 , o_b4 $end
$var reg 1 + o_b5 $end
$var reg 1 * o_b6 $end
$var reg 1 ) o_b7 $end
$var reg 1 \ reset $end
$var reg 5 ] reset_dly_cnt [4:0] $end
$var reg 8 ^ t_depp [7:0] $end
$scope begin DR_WBDEPP_RESET_TST $end
$upscope $end
$scope begin DR_WBDEPP_RTL1 $end
$upscope $end
$scope begin DR_WBDEPP_RTL2 $end
$upscope $end
$upscope $end
$upscope $end
$enddefinitions $end
#0
$dumpvars
bx ^
bx ]
x\
bx [
xZ
1Y
bx X
1W
xV
0U
0T
1S
bx R
bx Q
1P
bx O
bx N
bx M
1L
1K
b0 J
xI
0H
bx G
bx F
0E
0D
bx C
xB
xA
x@
bx ?
x>
x=
x<
bx ;
x:
x9
x8
x7
x6
x5
x4
x3
x2
x1
x0
x/
x.
x-
x,
x+
x*
x)
bx (
0'
bx &
0%
bx $
0#
x"
bx !
$end
#10002
1'
1H
0)
0*
0+
0,
0-
0.
0/
00
0\
0Y
0W
0Z
b0 X
b0 C
b0 [
0=
b0 ?
b0 G
0@
0A
0>
b0 ;
b0 F
0B
0<
01
1:
#20002
0:
#30002
1E
1D
1I
0S
0P
0V
b0 R
1:
#40002
0:
#50002
0E
0D
0L
0K
b0xxxxxxxxxxxxxxxxxxxxxxxx &
b0xxxxxxxxxxxxxxxxxxxxxxxx N
1:
#60002
0:
#70002
b0 (
b0 M
1:
#80002
0:
#90002
1:
#100002
0:
#110002
1:
#120002
0:
#130002
1:
#140002
0:
#150002
1:
#160002
0:
#170002
1:
#180002
0:
#190002
1:
#200002
0:
#210002
1:
#220002
0:
#230002
1:
#240002
0:
#250002
1:
#260002
0:
#270002
1:
#280002
0:
#290002
1:
#300002
0:
#310002
1:
#320002
0:
#330002
1:
#340002
0:
#350002
1:
#360002
0:
#370002
1:
#380002
0:
#390002
1:
#400002
0:
#410002
1:
#420002
0:
#430002
1:
#440002
0:
#450002
1:
#460002
0:
#470002
1:
#480002
0:
#490002
1:
#500002
0:
#510002
1:
#520002
0:
#530002
1:
#540002
0:
#550002
1:
#560002
0:
#570002
1:
#580002
0:
#590002
1:
#600002
0:
#610002
1:
#620002
0:
#630002
1:
#640002
0:
#650002
1:
#660002
0:
#670002
1:
#680002
0:
#690002
1:
#700002
0:
#710002
1:
#720002
0:
#730002
1:
#740002
0:
#750002
1:
#760002
0:
#770002
1:
#780002
0:
#790002
1:
#800002
0:
#810002
1:
#820002
0:
#830002
1:
#840002
0:
#850002
1:
#860002
0:
#870002
1:
#880002
0:
#890002
1:
#900002
0:
#910002
1:
#920002
0:
#930002
1:
#940002
0:
#950002
1:
#960002
0:
#970002
1:
#980002
0:
#990002
1:
#1000002
0:
#1010002
1:
#1020002
0:
#1030002
1:
#1040002
0:
#1050002
1:
#1060002
0:
#1070002
1:
#1080002
0:
#1090002
1:
#1100002
0:
#1110002
1:
#1120002
0:
#1130002
1:
#1140002
0:
#1150002
1:
#1160002
0:
#1170002
1:
#1180002
0:
#1190002
1:
#1200002
0:
#1210002
1:
#1220002
0:
#1230002
1:
#1240002
0:
#1250002
1:
#1260002
0:
#1270002
1:
#1280002
0:
#1290002
1:
#1300002
0:
#1310002
1:
#1320002
0:
#1330002
1:
#1340002
0:
#1350002
1:
#1360002
0:
#1370002
1:
#1380002
0:
#1390002
1:
#1400002
0:
#1410002
1:
#1420002
0:
#1430002
1:
#1440002
0:
#1450002
1:
#1460002
0:
#1470002
1:
#1480002
0:
#1490002
1:
#1500002
0:
#1510002
1:
#1520002
0:
#1530002
1:
#1540002
0:
#1550002
1:
#1560002
0:
#1570002
1:
#1580002
0:
#1590002
1:
#1600002
0:
#1610002
1:
#1620002
0:
#1630002
1:
#1640002
0:
#1650002
1:
#1660002
0:
#1670002
1:
#1680002
0:
#1690002
1:
#1700002
0:
#1710002
1:
#1720002
0:
#1730002
1:
#1740002
0:
#1750002
1:
#1760002
0:
#1770002
1:
#1780002
0:
#1790002
1:
#1800002
0:
#1810002
1:
#1820002
0:
#1830002
1:
#1840002
0:
#1850002
1:
#1860002
0:
#1870002
1:
#1880002
0:
#1890002
1:
#1900002
0:
#1910002
1:
#1920002
0:
#1930002
1:
#1940002
0:
#1950002
1:
#1960002
0:
#1970002
1:
#1980002
0:
#1990002
1:
#2000002
0:
#2010002
1:
#2020002
0:
#2030002
1:
#2040002
0:
#2050002
1:
#2060002
0:
#2070002
1:
#2070003
b1 C
b1 [
#2080002
0:
#2090002
10
1:
#2100002
0:
#2110002
1:
#2110003
b10 C
b10 [
#2120002
0:
#2130002
1/
00
1:
#2140002
0:
#2150002
1:
#2150003
b11 C
b11 [
#2160002
0:
#2170002
10
1:
#2180002
0:
#2190002
1:
#2190003
b100 C
b100 [
#2200002
0:
#2210002
1.
0/
00
1:
#2220002
0:
#2230002
1:
#2230003
b101 C
b101 [
#2240002
0:
#2250002
10
1:
#2260002
0:
#2270002
1:
#2270003
b110 C
b110 [
#2280002
0:
#2290002
1/
00
1:
#2300002
0:
#2310002
1:
#2310003
b111 C
b111 [
#2320002
0:
#2330002
10
1:
#2340002
0:
#2350002
1:
#2350003
b1000 C
b1000 [
#2360002
0:
#2370002
1-
0.
0/
00
1:
#2380002
0:
#2390002
1:
#2390003
b1001 C
b1001 [
#2400002
0:
#2410002
10
1:
#2420002
0:
#2430002
1:
#2430003
b1010 C
b1010 [
#2440002
0:
#2450002
1/
00
1:
#2460002
0:
#2470002
1:
#2470003
b1011 C
b1011 [
#2480002
0:
#2490002
10
1:
#2500002
0:
#2510002
1:
#2510003
b1100 C
b1100 [
#2520002
0:
#2530002
1.
0/
00
1:
#2540002
0:
#2550002
1:
#2550003
b1101 C
b1101 [
#2560002
0:
#2570002
10
1:
#2580002
0:
#2590002
1:
#2590003
b1110 C
b1110 [
#2600002
0:
#2610002
1/
00
1:
#2620002
0:
#2630002
1:
#2630003
b1111 C
b1111 [
#2640002
0:
#2650002
10
1:
#2660002
0:
#2670002
1:
#2670003
b10000 C
b10000 [
#2680002
0:
#2690002
1,
0-
0.
0/
00
1:
#2700002
0:
#2710002
1:
#2710003
b10001 C
b10001 [
#2720002
0:
#2730002
10
1:
#2740002
0:
#2750002
1:
#2750003
b10010 C
b10010 [
#2760002
0:
#2770002
1/
00
1:
#2780002
0:
#2790002
1:
#2790003
b10011 C
b10011 [
#2800002
0:
#2810002
10
1:
#2820002
0:
#2830002
1:
#2830003
b10100 C
b10100 [
#2840002
0:
#2850002
1.
0/
00
1:
#2860002
0:
#2870002
1:
#2870003
b10101 C
b10101 [
#2880002
0:
#2890002
10
1:
#2900002
0:
#2910002
1:
#2910003
b10110 C
b10110 [
#2920002
0:
#2930002
1/
00
1:
#2940002
0:
#2950002
1:
#2950003
b10111 C
b10111 [
#2960002
0:
#2970002
10
1:
#2980002
0:
#2990002
1:
#2990003
b11000 C
b11000 [
#3000002
0:
#3010002
1-
0.
0/
00
1:
#3020002
0:
#3030002
1:
#3030003
b11001 C
b11001 [
#3040002
0:
#3050002
10
1:
#3060002
0:
#3070002
1:
#3070003
b11010 C
b11010 [
#3080002
0:
#3090002
1/
00
1:
#3100002
0:
#3110002
1:
#3110003
b11011 C
b11011 [
#3120002
0:
#3130002
10
1:
#3140002
0:
#3150002
1:
#3150003
b11100 C
b11100 [
#3160002
0:
#3170002
1.
0/
00
1:
#3180002
0:
#3190002
1:
#3190003
b11101 C
b11101 [
#3200002
0:
#3210002
10
1:
#3220002
0:
#3230002
1:
#3230003
b11110 C
b11110 [
#3240002
0:
#3250002
1/
00
1:
#3260002
0:
#3270002
1:
#3270003
b11111 C
b11111 [
#3280002
0:
#3290002
10
1:
#3300002
0:
#3310002
1:
#3310003
b100000 C
b100000 [
#3320002
0:
#3330002
1+
0,
0-
0.
0/
00
1:
#3340002
0:
#3350002
1:
#3350003
b100001 C
b100001 [
#3360002
0:
#3370002
10
1:
#3380002
0:
#3390002
1:
#3390003
b100010 C
b100010 [
#3400002
0:
#3410002
1/
00
1:
#3420002
0:
#3430002
1:
#3430003
b100011 C
b100011 [
#3440002
0:
#3450002
10
1:
#3460002
0:
#3470002
1:
#3470003
b100100 C
b100100 [
#3480002
0:
#3490002
1.
0/
00
1:
#3500002
0:
#3510002
1:
#3510003
b100101 C
b100101 [
#3520002
0:
#3530002
10
1:
#3540002
0:
#3550002
1:
#3550003
b100110 C
b100110 [
#3560002
0:
#3570002
1/
00
1:
#3580002
0:
#3590002
1:
#3590003
b100111 C
b100111 [
#3600002
0:
#3610002
10
1:
#3620002
0:
#3630002
1:
#3630003
b101000 C
b101000 [
#3640002
0:
#3650002
1-
0.
0/
00
1:
#3660002
0:
#3670002
1:
#3670003
b101001 C
b101001 [
#3680002
0:
#3690002
10
1:
#3700002
0:
#3710002
1:
#3710003
b101010 C
b101010 [
#3720002
0:
#3730002
1/
00
1:
#3740002
0:
#3750002
1:
#3750003
b101011 C
b101011 [
#3760002
0:
#3770002
10
1:
#3780002
0:
#3790002
1:
#3790003
b101100 C
b101100 [
#3800002
0:
#3810002
1.
0/
00
1:
#3820002
0:
#3830002
1:
#3830003
b101101 C
b101101 [
#3840002
0:
#3850002
10
1:
#3860002
0:
#3870002
1:
#3870003
b101110 C
b101110 [
#3880002
0:
#3890002
1/
00
1:
#3900002
0:
#3910002
1:
#3910003
b101111 C
b101111 [
#3920002
0:
#3930002
10
1:
#3940002
0:
#3950002
1:
#3950003
b110000 C
b110000 [
#3960002
0:
#3970002
1,
0-
0.
0/
00
1:
#3980002
0:
#3990002
1:
#3990003
b110001 C
b110001 [
#4000002
0:
#4010002
10
1:
#4020002
0:
#4030002
1:
#4030003
b110010 C
b110010 [
#4040002
0:
#4050002
1/
00
1:
#4060002
0:
#4070002
1:
#4070003
b110011 C
b110011 [
#4080002
0:
#4090002
10
1:
#4100002
0:
#4110002
1:
#4110003
b110100 C
b110100 [
#4120002
0:
#4130002
1.
0/
00
1:
#4140002
0:
#4150002
1:
#4150003
b110101 C
b110101 [
#4160002
0:
#4170002
10
1:
#4180002
0:
#4190002
1:
#4190003
b110110 C
b110110 [
#4200002
0:
#4210002
1/
00
1:
#4220002
0:
#4230002
1:
#4230003
b110111 C
b110111 [
#4240002
0:
#4250002
10
1:
#4260002
0:
#4270002
1:
#4270003
b111000 C
b111000 [
#4280002
0:
#4290002
1-
0.
0/
00
1:
#4300002
0:
#4310002
1:
#4310003
b111001 C
b111001 [
#4320002
0:
#4330002
10
1:
#4340002
0:
#4350002
1:
#4350003
b111010 C
b111010 [
#4360002
0:
#4370002
1/
00
1:
#4380002
0:
#4390002
1:
#4390003
b111011 C
b111011 [
#4400002
0:
#4410002
10
1:
#4420002
0:
#4430002
1:
#4430003
b111100 C
b111100 [
#4440002
0:
#4450002
1.
0/
00
1:
#4460002
0:
#4470002
1:
#4470003
b111101 C
b111101 [
#4480002
0:
#4490002
10
1:
#4500002
0:
#4510002
1:
#4510003
b111110 C
b111110 [
#4520002
0:
#4530002
1/
00
1:
#4540002
0:
#4550002
1:
#4550003
b111111 C
b111111 [
#4560002
0:
#4570002
10
1:
#4580002
0:
#4590002
1:
#4590003
b1000000 C
b1000000 [
#4600002
0:
#4610002
1*
0+
0,
0-
0.
0/
00
1:
#4620002
0:
#4630002
1:
#4630003
b1000001 C
b1000001 [
#4640002
0:
#4650002
10
1:
#4660002
0:
#4670002
1:
#4670003
b1000010 C
b1000010 [
#4680002
0:
#4690002
1/
00
1:
#4700002
0:
#4710002
1:
#4710003
b1000011 C
b1000011 [
#4720002
0:
#4730002
10
1:
#4740002
0:
#4750002
1:
#4750003
b1000100 C
b1000100 [
#4760002
0:
#4770002
1.
0/
00
1:
#4780002
0:
#4790002
1:
#4790003
b1000101 C
b1000101 [
#4800002
0:
#4810002
10
1:
#4820002
0:
#4830002
1:
#4830003
b1000110 C
b1000110 [
#4840002
0:
#4850002
1/
00
1:
#4860002
0:
#4870002
1:
#4870003
b1000111 C
b1000111 [
#4880002
0:
#4890002
10
1:
#4900002
0:
#4910002
1:
#4910003
b1001000 C
b1001000 [
#4920002
0:
#4930002
1-
0.
0/
00
1:
#4940002
0:
#4950002
1:
#4950003
b1001001 C
b1001001 [
#4960002
0:
#4970002
10
1:
#4980002
0:
#4990002
1:
#4990003
b1001010 C
b1001010 [
#5000002
0:
#5010002
1/
00
1:
#5020002
0:
#5030002
1:
#5030003
b1001011 C
b1001011 [
#5040002
0:
#5050002
10
1:
#5060002
0:
#5070002
1:
#5070003
b1001100 C
b1001100 [
#5080002
0:
#5090002
1.
0/
00
1:
#5100002
0:
#5110002
1:
#5110003
b1001101 C
b1001101 [
#5120002
0:
#5130002
10
1:
#5140002
0:
#5150002
1:
#5150003
b1001110 C
b1001110 [
#5160002
0:
#5170002
1/
00
1:
#5180002
0:
#5190002
1:
#5190003
b1001111 C
b1001111 [
#5200002
0:
#5210002
10
1:
#5220002
0:
#5230002
1:
#5230003
b1010000 C
b1010000 [
#5240002
0:
#5250002
1,
0-
0.
0/
00
1:
#5260002
0:
#5270002
1:
#5270003
b1010001 C
b1010001 [
#5280002
0:
#5290002
10
1:
#5300002
0:
#5310002
1:
#5310003
b1010010 C
b1010010 [
#5320002
0:
#5330002
1/
00
1:
#5340002
0:
#5350002
1:
#5350003
b1010011 C
b1010011 [
#5360002
0:
#5370002
10
1:
#5380002
0:
#5390002
1:
#5390003
b1010100 C
b1010100 [
#5400002
0:
#5410002
1.
0/
00
1:
#5420002
0:
#5430002
1:
#5430003
b1010101 C
b1010101 [
#5440002
0:
#5450002
10
1:
#5460002
0:
#5470002
1:
#5470003
b1010110 C
b1010110 [
#5480002
0:
#5490002
1/
00
1:
#5500002
0:
#5510002
1:
#5510003
b1010111 C
b1010111 [
#5520002
0:
#5530002
10
1:
#5540002
0:
#5550002
1:
#5550003
b1011000 C
b1011000 [
#5560002
0:
#5570002
1-
0.
0/
00
1:
#5580002
0:
#5590002
1:
#5590003
b1011001 C
b1011001 [
#5600002
0:
#5610002
10
1:
#5620002
0:
#5630002
1:
#5630003
b1011010 C
b1011010 [
#5640002
0:
#5650002
1/
00
1:
#5660002
0:
#5670002
1:
#5670003
b1011011 C
b1011011 [
#5680002
0:
#5690002
10
1:
#5700002
0:
#5710002
1:
#5710003
b1011100 C
b1011100 [
#5720002
0:
#5730002
1.
0/
00
1:
#5740002
0:
#5750002
1:
#5750003
b1011101 C
b1011101 [
#5760002
0:
#5770002
10
1:
#5780002
0:
#5790002
1:
#5790003
b1011110 C
b1011110 [
#5800002
0:
#5810002
1/
00
1:
#5820002
0:
#5830002
1:
#5830003
b1011111 C
b1011111 [
#5840002
0:
#5850002
10
1:
#5860002
0:
#5870002
1:
#5870003
b1100000 C
b1100000 [
#5880002
0:
#5890002
1+
0,
0-
0.
0/
00
1:
#5900002
0:
#5910002
1:
#5910003
b1100001 C
b1100001 [
#5920002
0:
#5930002
10
1:
#5940002
0:
#5950002
1:
#5950003
b1100010 C
b1100010 [
#5960002
0:
#5970002
1/
00
1:
#5980002
0:
#5990002
1:
#5990003
b1100011 C
b1100011 [
#6000002
0:
#6010002
10
1:
#6020002
0:
#6030002
1:
#6030003
b1100100 C
b1100100 [
#6040002
0:
#6050002
1.
0/
00
1:
#6060002
0:
#6070002
1:
#6070003
b1100101 C
b1100101 [
#6080002
0:
#6090002
10
1:
#6100002
0:
#6110002
1:
#6110003
b1100110 C
b1100110 [
#6120002
0:
#6130002
1/
00
1:
#6140002
0:
#6150002
1:
#6150003
b1100111 C
b1100111 [
#6160002
0:
#6170002
10
1:
#6180002
0:
#6190002
1:
#6190003
b1101000 C
b1101000 [
#6200002
0:
#6210002
1-
0.
0/
00
1:
#6220002
0:
#6230002
1:
#6230003
b1101001 C
b1101001 [
#6240002
0:
#6250002
10
1:
#6260002
0:
#6270002
1:
#6270003
b1101010 C
b1101010 [
#6280002
0:
#6290002
1/
00
1:
#6300002
0:
#6310002
1:
#6310003
b1101011 C
b1101011 [
#6320002
0:
#6330002
10
1:
#6340002
0:
#6350002
1:
#6350003
b1101100 C
b1101100 [
#6360002
0:
#6370002
1.
0/
00
1:
#6380002
0:
#6390002
1:
#6390003
b1101101 C
b1101101 [
#6400002
0:
#6410002
10
1:
#6420002
0:
#6430002
1:
#6430003
b1101110 C
b1101110 [
#6440002
0:
#6450002
1/
00
1:
#6460002
0:
#6470002
1:
#6470003
b1101111 C
b1101111 [
#6480002
0:
#6490002
10
1:
#6500002
0:
#6510002
1:
#6510003
b1110000 C
b1110000 [
#6520002
0:
#6530002
1,
0-
0.
0/
00
1:
#6540002
0:
#6550002
1:
#6550003
b1110001 C
b1110001 [
#6560002
0:
#6570002
10
1:
#6580002
0:
#6590002
1:
#6590003
b1110010 C
b1110010 [
#6600002
0:
#6610002
1/
00
1:
#6620002
0:
#6630002
1:
#6630003
b1110011 C
b1110011 [
#6640002
0:
#6650002
10
1:
#6660002
0:
#6670002
1:
#6670003
b1110100 C
b1110100 [
#6680002
0:
#6690002
1.
0/
00
1:
#6700002
0:
#6710002
1:
#6710003
b1110101 C
b1110101 [
#6720002
0:
#6730002
10
1:
#6740002
0:
#6750002
1:
#6750003
b1110110 C
b1110110 [
#6760002
0:
#6770002
1/
00
1:
#6780002
0:
#6790002
1:
#6790003
b1110111 C
b1110111 [
#6800002
0:
#6810002
10
1:
#6820002
0:
#6830002
1:
#6830003
b1111000 C
b1111000 [
#6840002
0:
#6850002
1-
0.
0/
00
1:
#6860002
0:
#6870002
1:
#6870003
b1111001 C
b1111001 [
#6880002
0:
#6890002
10
1:
#6900002
0:
#6910002
1:
#6910003
b1111010 C
b1111010 [
#6920002
0:
#6930002
1/
00
1:
#6940002
0:
#6950002
1:
#6950003
b1111011 C
b1111011 [
#6960002
0:
#6970002
10
1:
#6980002
0:
#6990002
1:
#6990003
b1111100 C
b1111100 [
#7000002
0:
#7010002
1.
0/
00
1:
#7020002
0:
#7030002
1:
#7030003
b1111101 C
b1111101 [
#7040002
0:
#7050002
10
1:
#7060002
0:
#7070002
1:
#7070003
b1111110 C
b1111110 [
#7080002
0:
#7090002
1/
00
1:
#7100002
0:
#7110002
1:
#7110003
b1111111 C
b1111111 [
#7120002
0:
#7130002
10
1:
#7140002
0:
#7150002
1:
#7150003
b10000000 C
b10000000 [
#7160002
0:
#7170002
1)
0*
0+
0,
0-
0.
0/
00
1:
#7180002
0:
#7190002
1:
#7190003
b10000001 C
b10000001 [
#7200002
0:
#7210002
10
1:
#7220002
0:
#7230002
1:
#7230003
b10000010 C
b10000010 [
#7240002
0:
#7250002
1/
00
1:
#7260002
0:
#7270002
1:
#7270003
b10000011 C
b10000011 [
#7280002
0:
#7290002
10
1:
#7300002
0:
#7310002
1:
#7310003
b10000100 C
b10000100 [
#7320002
0:
#7330002
1.
0/
00
1:
#7340002
0:
#7350002
1:
#7350003
b10000101 C
b10000101 [
#7360002
0:
#7370002
10
1:
#7380002
0:
#7390002
1:
#7390003
b10000110 C
b10000110 [
#7400002
0:
#7410002
1/
00
1:
#7420002
0:
#7430002
1:
#7430003
b10000111 C
b10000111 [
#7440002
0:
#7450002
10
1:
#7460002
0:
#7470002
1:
#7470003
b10001000 C
b10001000 [
#7480002
0:
#7490002
1-
0.
0/
00
1:
#7500002
0:
#7510002
1:
#7510003
b10001001 C
b10001001 [
#7520002
0:
#7530002
10
1:
#7540002
0:
#7550002
1:
#7550003
b10001010 C
b10001010 [
#7560002
0:
#7570002
1/
00
1:
#7580002
0:
#7590002
1:
#7590003
b10001011 C
b10001011 [
#7600002
0:
#7610002
10
1:
#7620002
0:
#7630002
1:
#7630003
b10001100 C
b10001100 [
#7640002
0:
#7650002
1.
0/
00
1:
#7660002
0:
#7670002
1:
#7670003
b10001101 C
b10001101 [
#7680002
0:
#7690002
10
1:
#7700002
0:
#7710002
1:
#7710003
b10001110 C
b10001110 [
#7720002
0:
#7730002
1/
00
1:
#7740002
0:
#7750002
1:
#7750003
b10001111 C
b10001111 [
#7760002
0:
#7770002
10
1:
#7780002
0:
#7790002
1:
#7790003
b10010000 C
b10010000 [
#7800002
0:
#7810002
1,
0-
0.
0/
00
1:
#7820002
0:
#7830002
1:
#7830003
b10010001 C
b10010001 [
#7840002
0:
#7850002
10
1:
#7860002
0:
#7870002
1:
#7870003
b10010010 C
b10010010 [
#7880002
0:
#7890002
1/
00
1:
#7900002
0:
#7910002
1:
#7910003
b10010011 C
b10010011 [
#7920002
0:
#7930002
10
1:
#7940002
0:
#7950002
1:
#7950003
b10010100 C
b10010100 [
#7960002
0:
#7970002
1.
0/
00
1:
#7980002
0:
#7990002
1:
#7990003
b10010101 C
b10010101 [
#8000002
0:
#8010002
10
1:
#8020002
0:
#8030002
1:
#8030003
b10010110 C
b10010110 [
#8040002
0:
#8050002
1/
00
1:
#8060002
0:
#8070002
1:
#8070003
b10010111 C
b10010111 [
#8080002
0:
#8090002
10
1:
#8100002
0:
#8110002
1:
#8110003
b10011000 C
b10011000 [
#8120002
0:
#8130002
1-
0.
0/
00
1:
#8140002
0:
#8150002
1:
#8150003
b10011001 C
b10011001 [
#8160002
0:
#8170002
10
1:
#8180002
0:
#8190002
1:
#8190003
b10011010 C
b10011010 [
#8200002
0:
#8210002
1/
00
1:
#8220002
0:
#8230002
1:
#8230003
b10011011 C
b10011011 [
#8240002
0:
#8250002
10
1:
#8260002
0:
#8270002
1:
#8270003
b10011100 C
b10011100 [
#8280002
0:
#8290002
1.
0/
00
1:
#8300002
0:
#8310002
1:
#8310003
b10011101 C
b10011101 [
#8320002
0:
#8330002
10
1:
#8340002
0:
#8350002
1:
#8350003
b10011110 C
b10011110 [
#8360002
0:
#8370002
1/
00
1:
#8380002
0:
#8390002
1:
#8390003
b10011111 C
b10011111 [
#8400002
0:
#8410002
10
1:
#8420002
0:
#8430002
1:
#8430003
b10100000 C
b10100000 [
#8440002
0:
#8450002
1+
0,
0-
0.
0/
00
1:
#8460002
0:
#8470002
1:
#8470003
b10100001 C
b10100001 [
#8480002
0:
#8490002
10
1:
#8500002
0:
#8510002
1:
#8510003
b10100010 C
b10100010 [
#8520002
0:
#8530002
1/
00
1:
#8540002
0:
#8550002
1:
#8550003
b10100011 C
b10100011 [
#8560002
0:
#8570002
10
1:
#8580002
0:
#8590002
1:
#8590003
b10100100 C
b10100100 [
#8600002
0:
#8610002
1.
0/
00
1:
#8620002
0:
#8630002
1:
#8630003
b10100101 C
b10100101 [
#8640002
0:
#8650002
10
1:
#8660002
0:
#8670002
1:
#8670003
b10100110 C
b10100110 [
#8680002
0:
#8690002
1/
00
1:
#8700002
0:
#8710002
1:
#8710003
b10100111 C
b10100111 [
#8720002
0:
#8730002
10
1:
#8740002
0:
#8750002
1:
#8750003
b10101000 C
b10101000 [
#8760002
0:
#8770002
1-
0.
0/
00
1:
#8780002
0:
#8790002
1:
#8790003
b10101001 C
b10101001 [
#8800002
0:
#8810002
10
1:
#8820002
0:
#8830002
1:
#8830003
b10101010 C
b10101010 [
#8840002
0:
#8850002
1/
00
1:
#8860002
0:
#8870002
1:
#8870003
b10101011 C
b10101011 [
#8880002
0:
#8890002
10
1:
#8900002
0:
#8910002
1:
#8910003
b10101100 C
b10101100 [
#8920002
0:
#8930002
1.
0/
00
1:
#8940002
0:
#8950002
1:
#8950003
b10101101 C
b10101101 [
#8960002
0:
#8970002
10
1:
#8980002
0:
#8990002
1:
#8990003
b10101110 C
b10101110 [
#9000002
0:
#9010002
1/
00
1:
#9020002
0:
#9030002
1:
#9030003
b10101111 C
b10101111 [
#9040002
0:
#9050002
10
1:
#9060002
0:
#9070002
1:
#9070003
b10110000 C
b10110000 [
#9080002
0:
#9090002
1,
0-
0.
0/
00
1:
#9100002
0:
#9110002
1:
#9110003
b10110001 C
b10110001 [
#9120002
0:
#9130002
10
1:
#9140002
0:
#9150002
1:
#9150003
b10110010 C
b10110010 [
#9160002
0:
#9170002
1/
00
1:
#9180002
0:
#9190002
1:
#9190003
b10110011 C
b10110011 [
#9200002
0:
#9210002
10
1:
#9220002
0:
#9230002
1:
#9230003
b10110100 C
b10110100 [
#9240002
0:
#9250002
1.
0/
00
1:
#9260002
0:
#9270002
1:
#9270003
b10110101 C
b10110101 [
#9280002
0:
#9290002
10
1:
#9300002
0:
#9310002
1:
#9310003
b10110110 C
b10110110 [
#9320002
0:
#9330002
1/
00
1:
#9340002
0:
#9350002
1:
#9350003
b10110111 C
b10110111 [
#9360002
0:
#9370002
10
1:
#9380002
0:
#9390002
1:
#9390003
b10111000 C
b10111000 [
#9400002
0:
#9410002
1-
0.
0/
00
1:
#9420002
0:
#9430002
1:
#9430003
b10111001 C
b10111001 [
#9440002
0:
#9450002
10
1:
#9460002
0:
#9470002
1:
#9470003
b10111010 C
b10111010 [
#9480002
0:
#9490002
1/
00
1:
#9500002
0:
#9510002
1:
#9510003
b10111011 C
b10111011 [
#9520002
0:
#9530002
10
1:
#9540002
0:
#9550002
1:
#9550003
b10111100 C
b10111100 [
#9560002
0:
#9570002
1.
0/
00
1:
#9580002
0:
#9590002
1:
#9590003
b10111101 C
b10111101 [
#9600002
0:
#9610002
10
1:
#9620002
0:
#9630002
1:
#9630003
b10111110 C
b10111110 [
#9640002
0:
#9650002
1/
00
1:
#9660002
0:
#9670002
1:
#9670003
b10111111 C
b10111111 [
#9680002
0:
#9690002
10
1:
#9700002
0:
#9710002
1:
#9710003
b11000000 C
b11000000 [
#9720002
0:
#9730002
1*
0+
0,
0-
0.
0/
00
1:
#9740002
0:
#9750002
1:
#9750003
b11000001 C
b11000001 [
#9760002
0:
#9770002
10
1:
#9780002
0:
#9790002
1:
#9790003
b11000010 C
b11000010 [
#9800002
0:
#9810002
1/
00
1:
#9820002
0:
#9830002
1:
#9830003
b11000011 C
b11000011 [
#9840002
0:
#9850002
10
1:
#9860002
0:
#9870002
1:
#9870003
b11000100 C
b11000100 [
#9880002
0:
#9890002
1.
0/
00
1:
#9900002
0:
#9910002
1:
#9910003
b11000101 C
b11000101 [
#9920002
0:
#9930002
10
1:
#9940002
0:
#9950002
1:
#9950003
b11000110 C
b11000110 [
#9960002
0:
#9970002
1/
00
1:
#9980002
0:
#9990002
1:
#9990003
b11000111 C
b11000111 [
#10000002
0:
#10010002
10
1:
#10020002
0:
#10030002
1:
#10030003
b11001000 C
b11001000 [
#10040002
0:
#10050002
1-
0.
0/
00
1:
#10060002
0:
#10070002
1:
#10070003
b11001001 C
b11001001 [
#10080002
0:
#10090002
10
1:
#10100002
0:
#10110002
1:
#10110003
b11001010 C
b11001010 [
#10120002
0:
#10130002
1/
00
1:
#10140002
0:
