xula2_fpga/parallel/tb/vcd/wbdeppsimple1.vcd
$date
	Wed May  4 13:40:57 2016
$end
$version
	Icarus Verilog
$end
$timescale
	10ps
$end
$scope module tb_wbdeppsimple1 $end
$var wire 8 ! to_depp [7:0] $end
$var wire 1 " o_wb_we $end
$var wire 1 # o_wb_stb $end
$var wire 32 $ o_wb_data [31:0] $end
$var wire 1 % o_wb_cyc $end
$var wire 32 & o_wb_addr [31:0] $end
$var wire 1 ' o_wait $end
$var wire 8 ( o_rpi2B [7:0] $end
$var wire 8 ) o_depp [7:0] $end
$var reg 8 * fr_depp [7:0] $end
$var reg 1 + i_astb_n $end
$var reg 1 , i_clk $end
$var reg 8 - i_depp [7:0] $end
$var reg 1 . i_dstb_n $end
$var reg 1 / i_int $end
$var reg 8 0 i_rpi2B [7:0] $end
$var reg 1 1 i_wb_ack $end
$var reg 32 2 i_wb_data [31:0] $end
$var reg 1 3 i_wb_err $end
$var reg 1 4 i_wb_stall $end
$var reg 1 5 i_write_n $end
$scope module dut_wbdeppsimple $end
$var wire 1 6 astb $end
$var wire 1 7 dstb $end
$var wire 1 + i_astb_n $end
$var wire 1 , i_clk $end
$var wire 8 8 i_depp [7:0] $end
$var wire 1 . i_dstb_n $end
$var wire 1 / i_int $end
$var wire 1 1 i_wb_ack $end
$var wire 32 9 i_wb_data [31:0] $end
$var wire 1 3 i_wb_err $end
$var wire 1 4 i_wb_stall $end
$var wire 1 5 i_write_n $end
$var wire 1 ' o_wait $end
$var wire 1 : w_wait $end
$var wire 1 ; w_write $end
$var reg 8 < addr [7:0] $end
$var reg 1 = l_astb_n $end
$var reg 1 > l_dstb_n $end
$var reg 8 ? o_depp [7:0] $end
$var reg 32 @ o_wb_addr [31:0] $end
$var reg 1 % o_wb_cyc $end
$var reg 32 A o_wb_data [31:0] $end
$var reg 1 # o_wb_stb $end
$var reg 1 " o_wb_we $end
$var reg 1 B r_astb_n $end
$var reg 32 C r_data [31:0] $end
$var reg 8 D r_depp [7:0] $end
$var reg 1 E r_dstb_n $end
$var reg 1 F r_err $end
$var reg 1 G r_int $end
$var reg 1 H r_write_n $end
$var reg 1 I x_astb_n $end
$var reg 8 J x_depp [7:0] $end
$var reg 1 K x_dstb_n $end
$var reg 1 L x_write_n $end
$upscope $end
$scope module tb_rpi2B_io $end
$var wire 8 M fr_depp [7:0] $end
$var wire 8 N i_rpi2B [7:0] $end
$var wire 8 O to_depp [7:0] $end
$var wire 8 P o_rpi2B [7:0] $end
$upscope $end
$upscope $end
$enddefinitions $end
#0
$dumpvars
bx P
bx O
bx N
bx M
xL
1K
bx J
1I
xH
0G
0F
1E
bx D
bx C
1B
bx A
bx @
bx ?
1>
1=
b0 <
x;
0:
bx 9
bx 8
07
06
x5
x4
x3
bx 2
x1
bx 0
x/
x.
bx -
x,
x+
bx *
bx )
bx (
0'
bx &
0%
bx $
0#
x"
bx !
$end
#10002
1'
1:
0K
0I
0L
b0 J
b0 !
b0 O
b0 (
b0 P
b0 0
b0 N
b0 *
b0 M
0/
b0 2
b0 9
03
04
01
b0 -
b0 8
05
0.
0+
1,
#10003
15
#20002
0,
#30002
17
16
1;
0E
0B
0H
b0 D
1L
1,
#30003
1.
#40002
0,
#50002
07
06
0;
0>
0=
1H
1K
b0xxxxxxxxxxxxxxxxxxxxxxxx &
b0xxxxxxxxxxxxxxxxxxxxxxxx @
1,
#50003
1+
#60002
0,
#70002
b0 )
b0 ?
1E
1I
1,
#70003
b1 !
b1 O
b1 0
b1 N
#70005
b1 -
b1 8
#80002
0,
#90002
1>
1B
b1 J
1,
#100002
0,
#110002
0'
0:
1=
b1 D
1,
#110003
05
#120002
0,
#130002
0L
1,
#130003
0.
#140002
0,
#150002
1;
1'
1:
0H
0K
1,
#150003
0+
#160002
0,
#170002
17
0E
0I
1,
#170003
15
#180002
0,
#190002
16
07
b1xxxxxxxxxxxxxxxxxxxxxxxx &
b1xxxxxxxxxxxxxxxxxxxxxxxx @
0>
0B
1L
1,
#190003
1.
#200002
0,
#210002
06
0;
0=
1H
1K
b1 <
b1 )
b1 ?
1,
#210003
1+
#210004
b1 (
b1 P
b1 *
b1 M
#220002
0,
#230002
bx )
bx ?
1E
1I
1,
#230004
b0 (
b0 P
b0 *
b0 M
#240002
0,
#250002
1>
1B
1,
#260002
0,
#270002
0'
0:
1=
1,
#280002
0,
#290002
1,
#290003
b10 !
b10 O
b10 0
b10 N
#290005
b10 -
b10 8
#300002
0,
#310002
b10 J
1,
#320002
0,
#330002
b10 D
1,
#330003
05
#340002
0,
#350002
0L
1,
#350003
0.
#360002
0,
#370002
1;
1'
1:
0H
0K
1,
#370003
0+
#380002
0,
#390002
17
0E
0I
1,
#390003
15
#400002
0,
#410002
16
07
0>
0B
1L
b100000010xxxxxxxxxxxxxxxx &
b100000010xxxxxxxxxxxxxxxx @
1,
#410003
1.
#420002
0,
#430002
06
0;
b10 )
b10 ?
b10 <
0=
1H
1K
1,
#430003
1+
#430004
b10 (
b10 P
b10 *
b10 M
#440002
0,
#450002
1E
1I
bx )
bx ?
1,
#450004
b0 (
b0 P
b0 *
b0 M
#460002
0,
#470002
1>
1B
1,
#480002
0,
#490002
0'
0:
1=
1,
#500002
0,
#510002
1,
#510003
b11 !
b11 O
b11 0
b11 N
#510005
b11 -
b11 8
#520002
0,
#530002
b11 J
1,
#540002
0,
#550002
b11 D
1,
#550003
05
#560002
0,
#570002
0L
1,
#570003
0.
#580002
0,
#590002
1;
1'
1:
0H
0K
1,
#590003
0+
#600002
0,
#610002
17
0E
0I
1,
#610003
15
#620002
0,
#630002
16
07
b10000001000000011xxxxxxxx &
b10000001000000011xxxxxxxx @
0>
0B
1L
1,
#630003
1.
#640002
0,
#650002
06
0;
0=
1H
1K
b11 <
b11 )
b11 ?
1,
#650003
1+
#650004
b11 (
b11 P
b11 *
b11 M
#660002
0,
#670002
bx )
bx ?
1E
1I
1,
#670004
b0 (
b0 P
b0 *
b0 M
#680002
0,
#690002
1>
1B
1,
#700002
0,
#710002
0'
0:
1=
1,
#720002
0,
#730002
1,
#730003
b100 !
b100 O
b100 0
b100 N
#730005
b100 -
b100 8
#740002
0,
#750002
b100 J
1,
#760002
0,
#770002
b100 D
1,
#770003
05
#780002
0,
#790002
0L
1,
#790003
0.
#800002
0,
#810002
1;
1'
1:
0H
0K
1,
#810003
0+
#820002
0,
#830002
17
0E
0I
1,
#830003
15
#840002
0,
#850002
16
07
0>
0B
1L
b1000000100000001100000100 &
b1000000100000001100000100 @
1,
#850003
1.
#860002
0,
#870002
06
0;
b100 )
b100 ?
b100 <
0=
1H
1K
1,
#870003
1+
#870004
b100 (
b100 P
b100 *
b100 M
#880002
0,
#890002
1E
1I
bx )
bx ?
1,
#890004
b0 (
b0 P
b0 *
b0 M
#900002
0,
#910002
1>
1B
1,
#920002
0,
#930002
0'
0:
1=
1,
#940002
0,
#950002
1,
#950003
b1 !
b1 O
b1 0
b1 N
#950005
b1 -
b1 8
#960002
0,
#970002
b1 J
1,
#980002
0,
#990002
b1 D
1,
#990003
05
#1000002
0,
#1010002
0L
1,
#1020002
0,
#1030002
1;
0H
1,
#1030003
0.
#1040002
0,
#1050002
1'
1:
0K
1,
#1050003
15
#1060002
0,
#1070002
17
0E
1L
1,
#1080002
0,
#1090002
07
0;
0>
1H
b1xxxxxxxxxxxxxxxxxxxxxxxx $
b1xxxxxxxxxxxxxxxxxxxxxxxx A
1,
#1090003
1.
#1100002
0,
#1110002
1K
1,
#1120002
0,
#1130002
1E
1,
#1140002
0,
#1150002
0'
0:
1>
1,
#1160002
0,
#1170002
1,
#1170003
b10 !
b10 O
b10 0
b10 N
#1170005
b10 -
b10 8
#1180002
0,
#1190002
b10 J
1,
#1200002
0,
#1210002
b10 D
1,
#1210003
05
#1220002
0,
#1230002
0L
1,
#1240002
0,
#1250002
1;
0H
1,
#1250003
0.
#1260002
0,
#1270002
1'
1:
0K
1,
#1270003
15
#1280002
0,
#1290002
17
0E
1L
1,
#1300002
0,
#1310002
07
0;
b10xxxxxxxxxxxxxxxxxxxxxxxx $
b10xxxxxxxxxxxxxxxxxxxxxxxx A
0>
1H
1,
#1310003
1.
#1320002
0,
#1330002
1K
1,
#1340002
0,
#1350002
1E
1,
#1360002
0,
#1370002
0'
0:
1>
1,
#1380002
0,
#1390002
1,
#1390003
b11 !
b11 O
b11 0
b11 N
#1390005
b11 -
b11 8
#1400002
0,
#1410002
b11 J
1,
#1420002
0,
#1430002
b11 D
1,
#1430003
05
#1440002
0,
#1450002
0L
1,
#1460002
0,
#1470002
1;
0H
1,
#1470003
0.
#1480002
0,
#1490002
1'
1:
0K
1,
#1490003
15
#1500002
0,
#1510002
17
0E
1L
1,
#1520002
0,
#1530002
07
0;
0>
1H
b11xxxxxxxxxxxxxxxxxxxxxxxx $
b11xxxxxxxxxxxxxxxxxxxxxxxx A
1,
#1530003
1.
#1540002
0,
#1550002
1K
1,
#1560002
0,
#1570002
1E
1,
#1580002
0,
#1590002
0'
0:
1>
1,
#1600002
0,
#1610002
1,
#1610003
b100 !
b100 O
b100 0
b100 N
#1610005
b100 -
b100 8
#1620002
0,
#1630002
b100 J
1,
#1640002
0,
#1650002
b100 D
1,
#1650003
05
#1660002
0,
#1670002
0L
1,
#1680002
0,
#1690002
1;
0H
1,
#1690003
0.
#1700002
0,
#1710002
1'
1:
0K
1,
#1710003
15
#1720002
0,
#1730002
17
0E
1L
1,
#1740002
0,
#1750002
07
0;
b100xxxxxxxxxxxxxxxxxxxxxxxx $
b100xxxxxxxxxxxxxxxxxxxxxxxx A
0>
1H
1,
#1750003
1.
#1760002
0,
#1770002
1K
1,
#1780002
0,
#1790002
1E
1,
#1800002
0,
#1810002
0'
0:
1>
1,
