xula2_fpga/parallel/tb/vcd/wbdeppsimple1.vcd
$date
	Mon May  2 17:29:22 2016
$end
$version
	Icarus Verilog
$end
$timescale
	10ps
$end
$scope module tb_wbdeppsimple1 $end
$var wire 32 ! o_wb_data [31:0] $end
$var wire 1 " o_wb_stall $end
$var wire 8 # to_depp [7:0] $end
$var wire 1 $ o_wb_we $end
$var wire 1 % o_wb_stb $end
$var wire 1 & o_wb_cyc $end
$var wire 32 ' o_wb_addr [31:0] $end
$var wire 1 ( o_wb_ack $end
$var wire 1 ) o_wait $end
$var wire 8 * o_rpi2B [7:0] $end
$var wire 8 + o_depp [7:0] $end
$var reg 8 , fr_depp [7:0] $end
$var reg 1 - i_astb_n $end
$var reg 1 . i_clk $end
$var reg 8 / i_depp [7:0] $end
$var reg 1 0 i_dstb_n $end
$var reg 1 1 i_int $end
$var reg 8 2 i_rpi2B [7:0] $end
$var reg 1 3 i_wb_ack $end
$var reg 1 4 i_wb_cyc $end
$var reg 32 5 i_wb_data [31:0] $end
$var reg 1 6 i_wb_err $end
$var reg 1 7 i_wb_stall $end
$var reg 1 8 i_wb_stb $end
$var reg 1 9 i_wb_we $end
$var reg 1 : i_write_n $end
$scope module dut_wbdeppsimple $end
$var wire 1 ; astb $end
$var wire 1 < dstb $end
$var wire 1 - i_astb_n $end
$var wire 1 . i_clk $end
$var wire 8 = i_depp [7:0] $end
$var wire 1 0 i_dstb_n $end
$var wire 1 1 i_int $end
$var wire 1 3 i_wb_ack $end
$var wire 32 > i_wb_data [31:0] $end
$var wire 1 6 i_wb_err $end
$var wire 1 7 i_wb_stall $end
$var wire 1 : i_write_n $end
$var wire 1 ) o_wait $end
$var wire 1 ? w_wait $end
$var wire 1 @ w_write $end
$var reg 8 A addr [7:0] $end
$var reg 1 B l_astb_n $end
$var reg 1 C l_dstb_n $end
$var reg 8 D o_depp [7:0] $end
$var reg 32 E o_wb_addr [31:0] $end
$var reg 1 & o_wb_cyc $end
$var reg 32 F o_wb_data [31:0] $end
$var reg 1 % o_wb_stb $end
$var reg 1 $ o_wb_we $end
$var reg 1 G r_astb_n $end
$var reg 32 H r_data [31:0] $end
$var reg 8 I r_depp [7:0] $end
$var reg 1 J r_dstb_n $end
$var reg 1 K r_err $end
$var reg 1 L r_int $end
$var reg 1 M r_write_n $end
$var reg 1 N x_astb_n $end
$var reg 8 O x_depp [7:0] $end
$var reg 1 P x_dstb_n $end
$var reg 1 Q x_write_n $end
$upscope $end
$scope module tb_memdev $end
$var wire 1 . i_clk $end
$var wire 15 R i_wb_addr [14:0] $end
$var wire 1 4 i_wb_cyc $end
$var wire 32 S i_wb_data [31:0] $end
$var wire 1 8 i_wb_stb $end
$var wire 1 9 i_wb_we $end
$var wire 1 " o_wb_stall $end
$var reg 1 ( o_wb_ack $end
$var reg 32 T o_wb_data [31:0] $end
$upscope $end
$scope module tb_rpi2B_io $end
$var wire 8 U fr_depp [7:0] $end
$var wire 8 V i_rpi2B [7:0] $end
$var wire 8 W to_depp [7:0] $end
$var wire 8 X o_rpi2B [7:0] $end
$upscope $end
$upscope $end
$enddefinitions $end
#0
$dumpvars
bx X
bx W
bx V
bx U
bx T
bx S
b0z R
xQ
1P
bx O
1N
xM
0L
0K
1J
bx I
bx H
1G
bx F
bx E
bx D
1C
1B
b0 A
x@
0?
bx >
bx =
0<
0;
x:
x9
x8
x7
x6
bx 5
x4
x3
bx 2
x1
x0
bx /
x.
x-
bx ,
bx +
bx *
0)
x(
bx '
0&
0%
x$
bx #
0"
bx !
$end
#10002
1)
1?
0P
0N
0Q
b0 O
0(
b0 #
b0 W
b0 *
b0 X
b0 2
b0 V
b0 ,
b0 U
01
b0 5
b0 >
b0 S
06
07
03
09
08
04
b0 /
b0 =
0:
00
0-
1.
#20002
0.
#30002
1<
1;
1@
0J
0G
0M
b0 I
1.
#40002
0.
#50002
0<
0;
0C
0B
b0xxxxxxxxxxxxxxxxxxxxxxxx '
b0xxxxxxxxxxxxxxxxxxxxxxxx E
1.
#60002
0.
#70002
b0 +
b0 D
1.
#80002
0.
#90002
1.
#100002
0.
#110002
1.
#120002
0.
#130002
1.
#140002
0.
#150002
1.
#160002
0.
#170002
1.
#180002
0.
#190002
1.
#200002
0.
#210002
1.
#220002
0.
#230002
1.
#240002
0.
#250002
1.
#260002
0.
#270002
1.
#280002
0.
#290002
1.
#300002
0.
#310002
1.
#320002
0.
#330002
1.
#340002
0.
#350002
1.
#360002
0.
#370002
1.
#380002
0.
#390002
1.
#400002
0.
#410002
1.
#420002
0.
#430002
1.
#440002
0.
#450002
1.
#460002
0.
#470002
1.
#480002
0.
#490002
1.
#500002
0.
#510002
1.
#520002
0.
#530002
1.
#540002
0.
#550002
1.
#560002
0.
#570002
1.
#580002
0.
#590002
1.
#600002
0.
#610002
1.
#620002
0.
#630002
1.
#640002
0.
#650002
1.
#660002
0.
#670002
1.
#680002
0.
#690002
1.
#700002
0.
#710002
1.
#720002
0.
#730002
1.
#740002
0.
#750002
1.
#760002
0.
#770002
1.
#780002
0.
#790002
1.
#800002
0.
#810002
1.
#820002
0.
#830002
1.
#840002
0.
#850002
1.
#860002
0.
#870002
1.
#880002
0.
#890002
1.
#900002
0.
#910002
1.
#920002
0.
#930002
1.
#940002
0.
#950002
1.
#960002
0.
#970002
1.
#980002
0.
#990002
1.
#1000002
0.
#1010002
1.
#1020002
0.
#1030002
1.
#1040002
0.
#1050002
1.
#1060002
0.
#1070002
1.
#1080002
0.
#1090002
1.
#1100002
0.
#1110002
1.
#1120002
0.
#1130002
1.
#1140002
0.
#1150002
1.
#1160002
0.
#1170002
1.
#1180002
0.
#1190002
1.
#1200002
0.
#1210002
1.
#1220002
0.
#1230002
1.
#1240002
0.
#1250002
1.
#1260002
0.
#1270002
1.
#1280002
0.
#1290002
1.
#1300002
0.
#1310002
1.
#1320002
0.
#1330002
1.
#1340002
0.
#1350002
1.
#1360002
0.
#1370002
1.
#1380002
0.
#1390002
1.
#1400002
0.
#1410002
1.
#1420002
0.
#1430002
1.
#1440002
0.
#1450002
1.
#1460002
0.
#1470002
1.
#1480002
0.
#1490002
1.
#1500002
0.
#1510002
1.
#1520002
0.
#1530002
1.
#1540002
0.
#1550002
1.
#1560002
0.
#1570002
1.
#1580002
0.
#1590002
1.
#1600002
0.
#1610002
1.
#1620002
0.
#1630002
1.
#1640002
0.
#1650002
1.
#1660002
0.
#1670002
1.
#1680002
0.
#1690002
1.
#1700002
0.
#1710002
1.
#1720002
0.
#1730002
1.
#1740002
0.
#1750002
1.
#1760002
0.
#1770002
1.
#1780002
0.
#1790002
1.
#1800002
0.
#1810002
1.
#1820002
0.
#1830002
1.
#1840002
0.
#1850002
1.
#1860002
0.
#1870002
1.
#1880002
0.
#1890002
1.
#1900002
0.
#1910002
1.
#1920002
0.
#1930002
1.
#1940002
0.
#1950002
1.
#1960002
0.
#1970002
1.
#1980002
0.
#1990002
1.
#2000002
0.
#2010002
1.
#2020002
0.
#2030002
1.
#2030003
b1 *
b1 X
b1 ,
b1 U
#2040002
0.
#2050002
1.
#2050003
b10 *
b10 X
b10 ,
b10 U
#2060002
0.
#2070002
1.
#2070003
b11 *
b11 X
b11 ,
b11 U
#2080002
0.
#2090002
1.
#2090003
b100 *
b100 X
b100 ,
b100 U
#2100002
0.
#2110002
1.
#2110003
b101 *
b101 X
b101 ,
b101 U
#2120002
0.
#2130002
1.
#2130003
b110 *
b110 X
b110 ,
b110 U
#2140002
0.
#2150002
1.
#2150003
b111 *
b111 X
b111 ,
b111 U
#2160002
0.
#2170002
1.
#2170003
b1000 *
b1000 X
b1000 ,
b1000 U
#2180002
0.
#2190002
1.
#2190003
b1001 *
b1001 X
b1001 ,
b1001 U
#2200002
0.
#2210002
1.
#2210003
b1010 *
b1010 X
b1010 ,
b1010 U
#2220002
0.
#2230002
1.
#2230003
b1011 *
b1011 X
b1011 ,
b1011 U
#2240002
0.
#2250002
1.
#2250003
b1100 *
b1100 X
b1100 ,
b1100 U
#2260002
0.
#2270002
1.
#2270003
b1101 *
b1101 X
b1101 ,
b1101 U
#2280002
0.
#2290002
1.
#2290003
b1110 *
b1110 X
b1110 ,
b1110 U
#2300002
0.
#2310002
1.
#2310003
b1111 *
b1111 X
b1111 ,
b1111 U
#2320002
0.
#2330002
1.
#2330003
b10000 *
b10000 X
b10000 ,
b10000 U
#2340002
0.
#2350002
1.
#2350003
b10001 *
b10001 X
b10001 ,
b10001 U
#2360002
0.
#2370002
1.
#2370003
b10010 *
b10010 X
b10010 ,
b10010 U
#2380002
0.
#2390002
1.
#2390003
b10011 *
b10011 X
b10011 ,
b10011 U
#2400002
0.
#2410002
1.
#2410003
b10100 *
b10100 X
b10100 ,
b10100 U
#2420002
0.
#2430002
1.
#2430003
b10101 *
b10101 X
b10101 ,
b10101 U
#2440002
0.
#2450002
1.
#2450003
b10110 *
b10110 X
b10110 ,
b10110 U
#2460002
0.
#2470002
1.
#2470003
b10111 *
b10111 X
b10111 ,
b10111 U
#2480002
0.
#2490002
1.
#2490003
b11000 *
b11000 X
b11000 ,
b11000 U
#2500002
0.
#2510002
1.
#2510003
b11001 *
b11001 X
b11001 ,
b11001 U
#2520002
0.
#2530002
1.
#2530003
b11010 *
b11010 X
b11010 ,
b11010 U
#2540002
0.
#2550002
1.
#2550003
b11011 *
b11011 X
b11011 ,
b11011 U
#2560002
0.
#2570002
1.
#2570003
b11100 *
b11100 X
b11100 ,
b11100 U
#2580002
0.
#2590002
1.
#2590003
b11101 *
b11101 X
b11101 ,
b11101 U
#2600002
0.
#2610002
1.
#2610003
b11110 *
b11110 X
b11110 ,
b11110 U
#2620002
0.
#2630002
1.
#2630003
b11111 *
b11111 X
b11111 ,
b11111 U
#2640002
0.
#2650002
1.
#2650003
b100000 *
b100000 X
b100000 ,
b100000 U
#2660002
0.
#2670002
1.
#2670003
b100001 *
b100001 X
b100001 ,
b100001 U
#2680002
0.
#2690002
1.
#2690003
b100010 *
b100010 X
b100010 ,
b100010 U
#2700002
0.
#2710002
1.
#2710003
b100011 *
b100011 X
b100011 ,
b100011 U
#2720002
0.
#2730002
1.
#2730003
b100100 *
b100100 X
b100100 ,
b100100 U
#2740002
0.
#2750002
1.
#2750003
b100101 *
b100101 X
b100101 ,
b100101 U
#2760002
0.
#2770002
1.
#2770003
b100110 *
b100110 X
b100110 ,
b100110 U
#2780002
0.
#2790002
1.
#2790003
b100111 *
b100111 X
b100111 ,
b100111 U
#2800002
0.
#2810002
1.
#2810003
b101000 *
b101000 X
b101000 ,
b101000 U
#2820002
0.
#2830002
1.
#2830003
b101001 *
b101001 X
b101001 ,
b101001 U
#2840002
0.
#2850002
1.
#2850003
b101010 *
b101010 X
b101010 ,
b101010 U
#2860002
0.
#2870002
1.
#2870003
b101011 *
b101011 X
b101011 ,
b101011 U
#2880002
0.
#2890002
1.
#2890003
b101100 *
b101100 X
b101100 ,
b101100 U
#2900002
0.
#2910002
1.
#2910003
b101101 *
b101101 X
b101101 ,
b101101 U
#2920002
0.
#2930002
1.
#2930003
b101110 *
b101110 X
b101110 ,
b101110 U
#2940002
0.
#2950002
1.
#2950003
b101111 *
b101111 X
b101111 ,
b101111 U
#2960002
0.
#2970002
1.
#2970003
b110000 *
b110000 X
b110000 ,
b110000 U
#2980002
0.
#2990002
1.
#2990003
b110001 *
b110001 X
b110001 ,
b110001 U
#3000002
0.
#3010002
1.
#3010003
b110010 *
b110010 X
b110010 ,
b110010 U
#3020002
0.
#3030002
1.
#3030003
b110011 *
b110011 X
b110011 ,
b110011 U
#3040002
0.
#3050002
1.
#3050003
b110100 *
b110100 X
b110100 ,
b110100 U
#3060002
0.
#3070002
1.
#3070003
b110101 *
b110101 X
b110101 ,
b110101 U
#3080002
0.
#3090002
1.
#3090003
b110110 *
b110110 X
b110110 ,
b110110 U
#3100002
0.
#3110002
1.
#3110003
b110111 *
b110111 X
b110111 ,
b110111 U
#3120002
0.
#3130002
1.
#3130003
b111000 *
b111000 X
b111000 ,
b111000 U
#3140002
0.
#3150002
1.
#3150003
b111001 *
b111001 X
b111001 ,
b111001 U
#3160002
0.
#3170002
1.
#3170003
b111010 *
b111010 X
b111010 ,
b111010 U
#3180002
0.
#3190002
1.
#3190003
b111011 *
b111011 X
b111011 ,
b111011 U
#3200002
0.
#3210002
1.
#3210003
b111100 *
b111100 X
b111100 ,
b111100 U
#3220002
0.
#3230002
1.
#3230003
b111101 *
b111101 X
b111101 ,
b111101 U
#3240002
0.
#3250002
1.
#3250003
b111110 *
b111110 X
b111110 ,
b111110 U
#3260002
0.
#3270002
1.
#3270003
b111111 *
b111111 X
b111111 ,
b111111 U
#3280002
0.
#3290002
1.
#3290003
b1000000 *
b1000000 X
b1000000 ,
b1000000 U
#3300002
0.
#3310002
1.
#3310003
b1000001 *
b1000001 X
b1000001 ,
b1000001 U
#3320002
0.
#3330002
1.
#3330003
b1000010 *
b1000010 X
b1000010 ,
b1000010 U
#3340002
0.
#3350002
1.
#3350003
b1000011 *
b1000011 X
b1000011 ,
b1000011 U
#3360002
0.
#3370002
1.
#3370003
b1000100 *
b1000100 X
b1000100 ,
b1000100 U
#3380002
0.
#3390002
1.
#3390003
b1000101 *
b1000101 X
b1000101 ,
b1000101 U
#3400002
0.
#3410002
1.
#3410003
b1000110 *
b1000110 X
b1000110 ,
b1000110 U
#3420002
0.
#3430002
1.
#3430003
b1000111 *
b1000111 X
b1000111 ,
b1000111 U
#3440002
0.
#3450002
1.
#3450003
b1001000 *
b1001000 X
b1001000 ,
b1001000 U
#3460002
0.
#3470002
1.
#3470003
b1001001 *
b1001001 X
b1001001 ,
b1001001 U
#3480002
0.
#3490002
1.
#3490003
b1001010 *
b1001010 X
b1001010 ,
b1001010 U
#3500002
0.
#3510002
1.
#3510003
b1001011 *
b1001011 X
b1001011 ,
b1001011 U
#3520002
0.
#3530002
1.
#3530003
b1001100 *
b1001100 X
b1001100 ,
b1001100 U
#3540002
0.
#3550002
1.
#3550003
b1001101 *
b1001101 X
b1001101 ,
b1001101 U
#3560002
0.
#3570002
1.
#3570003
b1001110 *
b1001110 X
b1001110 ,
b1001110 U
#3580002
0.
#3590002
1.
#3590003
b1001111 *
b1001111 X
b1001111 ,
b1001111 U
#3600002
0.
#3610002
1.
#3610003
b1010000 *
b1010000 X
b1010000 ,
b1010000 U
#3620002
0.
#3630002
1.
#3630003
b1010001 *
b1010001 X
b1010001 ,
b1010001 U
#3640002
0.
#3650002
1.
#3650003
b1010010 *
b1010010 X
b1010010 ,
b1010010 U
#3660002
0.
#3670002
1.
#3670003
b1010011 *
b1010011 X
b1010011 ,
b1010011 U
#3680002
0.
#3690002
1.
#3690003
b1010100 *
b1010100 X
b1010100 ,
b1010100 U
#3700002
0.
#3710002
1.
#3710003
b1010101 *
b1010101 X
b1010101 ,
b1010101 U
#3720002
0.
#3730002
1.
#3730003
b1010110 *
b1010110 X
b1010110 ,
b1010110 U
#3740002
0.
#3750002
1.
#3750003
b1010111 *
b1010111 X
b1010111 ,
b1010111 U
#3760002
0.
#3770002
1.
#3770003
b1011000 *
b1011000 X
b1011000 ,
b1011000 U
#3780002
0.
#3790002
1.
#3790003
b1011001 *
b1011001 X
b1011001 ,
b1011001 U
#3800002
0.
#3810002
1.
#3810003
b1011010 *
b1011010 X
b1011010 ,
b1011010 U
#3820002
0.
#3830002
1.
#3830003
b1011011 *
b1011011 X
b1011011 ,
b1011011 U
#3840002
0.
#3850002
1.
#3850003
b1011100 *
b1011100 X
b1011100 ,
b1011100 U
#3860002
0.
#3870002
1.
#3870003
b1011101 *
b1011101 X
b1011101 ,
b1011101 U
#3880002
0.
#3890002
1.
#3890003
b1011110 *
b1011110 X
b1011110 ,
b1011110 U
#3900002
0.
#3910002
1.
#3910003
b1011111 *
b1011111 X
b1011111 ,
b1011111 U
#3920002
0.
#3930002
1.
#3930003
b1100000 *
b1100000 X
b1100000 ,
b1100000 U
#3940002
0.
#3950002
1.
#3950003
b1100001 *
b1100001 X
b1100001 ,
b1100001 U
#3960002
0.
#3970002
1.
#3970003
b1100010 *
b1100010 X
b1100010 ,
b1100010 U
#3980002
0.
#3990002
1.
#3990003
b1100011 *
b1100011 X
b1100011 ,
b1100011 U
#4000002
0.
#4010002
1.
#4010003
b1100100 *
b1100100 X
b1100100 ,
b1100100 U
#4020002
0.
#4030002
1.
#4030003
b1100101 *
b1100101 X
b1100101 ,
b1100101 U
#4040002
0.
#4050002
1.
#4050003
b1100110 *
b1100110 X
b1100110 ,
b1100110 U
#4060002
0.
#4070002
1.
#4070003
b1100111 *
b1100111 X
b1100111 ,
b1100111 U
#4080002
0.
#4090002
1.
#4090003
b1101000 *
b1101000 X
b1101000 ,
b1101000 U
#4100002
0.
#4110002
1.
#4110003
b1101001 *
b1101001 X
b1101001 ,
b1101001 U
#4120002
0.
#4130002
1.
#4130003
b1101010 *
b1101010 X
b1101010 ,
b1101010 U
#4140002
0.
#4150002
1.
#4150003
b1101011 *
b1101011 X
b1101011 ,
b1101011 U
#4160002
0.
#4170002
1.
#4170003
b1101100 *
b1101100 X
b1101100 ,
b1101100 U
#4180002
0.
#4190002
1.
#4190003
b1101101 *
b1101101 X
b1101101 ,
b1101101 U
#4200002
0.
#4210002
1.
#4210003
b1101110 *
b1101110 X
b1101110 ,
b1101110 U
#4220002
0.
#4230002
1.
#4230003
b1101111 *
b1101111 X
b1101111 ,
b1101111 U
#4240002
0.
#4250002
1.
#4250003
b1110000 *
b1110000 X
b1110000 ,
b1110000 U
#4260002
0.
#4270002
1.
#4270003
b1110001 *
b1110001 X
b1110001 ,
b1110001 U
#4280002
0.
#4290002
1.
#4290003
b1110010 *
b1110010 X
b1110010 ,
b1110010 U
#4300002
0.
#4310002
1.
#4310003
b1110011 *
b1110011 X
b1110011 ,
b1110011 U
#4320002
0.
#4330002
1.
#4330003
b1110100 *
b1110100 X
b1110100 ,
b1110100 U
#4340002
0.
#4350002
1.
#4350003
b1110101 *
b1110101 X
b1110101 ,
b1110101 U
#4360002
0.
#4370002
1.
#4370003
b1110110 *
b1110110 X
b1110110 ,
b1110110 U
#4380002
0.
#4390002
1.
#4390003
b1110111 *
b1110111 X
b1110111 ,
b1110111 U
#4400002
0.
#4410002
1.
#4410003
b1111000 *
b1111000 X
b1111000 ,
b1111000 U
#4420002
0.
#4430002
1.
#4430003
b1111001 *
b1111001 X
b1111001 ,
b1111001 U
#4440002
0.
#4450002
1.
#4450003
b1111010 *
b1111010 X
b1111010 ,
b1111010 U
#4460002
0.
#4470002
1.
#4470003
b1111011 *
b1111011 X
b1111011 ,
b1111011 U
#4480002
0.
#4490002
1.
#4490003
b1111100 *
b1111100 X
b1111100 ,
b1111100 U
#4500002
0.
#4510002
1.
#4510003
b1111101 *
b1111101 X
b1111101 ,
b1111101 U
#4520002
0.
#4530002
1.
#4530003
b1111110 *
b1111110 X
b1111110 ,
b1111110 U
#4540002
0.
#4550002
1.
#4550003
b1111111 *
b1111111 X
b1111111 ,
b1111111 U
#4560002
0.
#4570002
1.
#4570003
b10000000 *
b10000000 X
b10000000 ,
b10000000 U
#4580002
0.
#4590002
1.
#4590003
b10000001 *
b10000001 X
b10000001 ,
b10000001 U
#4600002
0.
#4610002
1.
#4610003
b10000010 *
b10000010 X
b10000010 ,
b10000010 U
#4620002
0.
#4630002
1.
#4630003
b10000011 *
b10000011 X
b10000011 ,
b10000011 U
#4640002
0.
#4650002
1.
#4650003
b10000100 *
b10000100 X
b10000100 ,
b10000100 U
#4660002
0.
#4670002
1.
#4670003
b10000101 *
b10000101 X
b10000101 ,
b10000101 U
#4680002
0.
#4690002
1.
#4690003
b10000110 *
b10000110 X
b10000110 ,
b10000110 U
#4700002
0.
#4710002
1.
#4710003
b10000111 *
b10000111 X
b10000111 ,
b10000111 U
#4720002
0.
#4730002
1.
#4730003
b10001000 *
b10001000 X
b10001000 ,
b10001000 U
#4740002
0.
#4750002
1.
#4750003
b10001001 *
b10001001 X
b10001001 ,
b10001001 U
#4760002
0.
#4770002
1.
#4770003
b10001010 *
b10001010 X
b10001010 ,
b10001010 U
#4780002
0.
#4790002
1.
#4790003
b10001011 *
b10001011 X
b10001011 ,
b10001011 U
#4800002
0.
#4810002
1.
#4810003
b10001100 *
b10001100 X
b10001100 ,
b10001100 U
#4820002
0.
#4830002
1.
#4830003
b10001101 *
b10001101 X
b10001101 ,
b10001101 U
#4840002
0.
#4850002
1.
#4850003
b10001110 *
b10001110 X
b10001110 ,
b10001110 U
#4860002
0.
#4870002
1.
#4870003
b10001111 *
b10001111 X
b10001111 ,
b10001111 U
#4880002
0.
#4890002
1.
#4890003
b10010000 *
b10010000 X
b10010000 ,
b10010000 U
#4900002
0.
#4910002
1.
#4910003
b10010001 *
b10010001 X
b10010001 ,
b10010001 U
#4920002
0.
#4930002
1.
#4930003
b10010010 *
b10010010 X
b10010010 ,
b10010010 U
#4940002
0.
#4950002
1.
#4950003
b10010011 *
b10010011 X
b10010011 ,
b10010011 U
#4960002
0.
#4970002
1.
#4970003
b10010100 *
b10010100 X
b10010100 ,
b10010100 U
#4980002
0.
#4990002
1.
#4990003
b10010101 *
b10010101 X
b10010101 ,
b10010101 U
#5000002
0.
#5010002
1.
#5010003
b10010110 *
b10010110 X
b10010110 ,
b10010110 U
#5020002
0.
#5030002
1.
#5030003
b10010111 *
b10010111 X
b10010111 ,
b10010111 U
#5040002
0.
#5050002
1.
#5050003
b10011000 *
b10011000 X
b10011000 ,
b10011000 U
#5060002
0.
#5070002
1.
#5070003
b10011001 *
b10011001 X
b10011001 ,
b10011001 U
#5080002
0.
#5090002
1.
#5090003
b10011010 *
b10011010 X
b10011010 ,
b10011010 U
#5100002
0.
#5110002
1.
#5110003
b10011011 *
b10011011 X
b10011011 ,
b10011011 U
#5120002
0.
#5130002
1.
#5130003
b10011100 *
b10011100 X
b10011100 ,
b10011100 U
#5140002
0.
#5150002
1.
#5150003
b10011101 *
b10011101 X
b10011101 ,
b10011101 U
#5160002
0.
#5170002
1.
#5170003
b10011110 *
b10011110 X
b10011110 ,
b10011110 U
#5180002
0.
#5190002
1.
#5190003
b10011111 *
b10011111 X
b10011111 ,
b10011111 U
#5200002
0.
#5210002
1.
#5210003
b10100000 *
b10100000 X
b10100000 ,
b10100000 U
#5220002
0.
#5230002
1.
#5230003
b10100001 *
b10100001 X
b10100001 ,
b10100001 U
#5240002
0.
#5250002
1.
#5250003
b10100010 *
b10100010 X
b10100010 ,
b10100010 U
#5260002
0.
#5270002
1.
#5270003
b10100011 *
b10100011 X
b10100011 ,
b10100011 U
#5280002
0.
#5290002
1.
#5290003
b10100100 *
b10100100 X
b10100100 ,
b10100100 U
#5300002
0.
#5310002
1.
#5310003
b10100101 *
b10100101 X
b10100101 ,
b10100101 U
#5320002
0.
#5330002
1.
#5330003
b10100110 *
b10100110 X
b10100110 ,
b10100110 U
#5340002
0.
#5350002
1.
#5350003
b10100111 *
b10100111 X
b10100111 ,
b10100111 U
#5360002
0.
#5370002
1.
#5370003
b10101000 *
b10101000 X
b10101000 ,
b10101000 U
#5380002
0.
#5390002
1.
#5390003
b10101001 *
b10101001 X
b10101001 ,
b10101001 U
#5400002
0.
#5410002
1.
#5410003
b10101010 *
b10101010 X
b10101010 ,
b10101010 U
#5420002
0.
#5430002
1.
#5430003
b10101011 *
b10101011 X
b10101011 ,
b10101011 U
#5440002
0.
#5450002
1.
#5450003
b10101100 *
b10101100 X
b10101100 ,
b10101100 U
#5460002
0.
#5470002
1.
#5470003
b10101101 *
b10101101 X
b10101101 ,
b10101101 U
#5480002
0.
#5490002
1.
#5490003
b10101110 *
b10101110 X
b10101110 ,
b10101110 U
#5500002
0.
#5510002
1.
#5510003
b10101111 *
b10101111 X
b10101111 ,
b10101111 U
#5520002
0.
#5530002
1.
#5530003
b10110000 *
b10110000 X
b10110000 ,
b10110000 U
#5540002
0.
#5550002
1.
#5550003
b10110001 *
b10110001 X
b10110001 ,
b10110001 U
#5560002
0.
#5570002
1.
#5570003
b10110010 *
b10110010 X
b10110010 ,
b10110010 U
#5580002
0.
#5590002
1.
#5590003
b10110011 *
b10110011 X
b10110011 ,
b10110011 U
#5600002
0.
#5610002
1.
#5610003
b10110100 *
b10110100 X
b10110100 ,
b10110100 U
#5620002
0.
#5630002
1.
#5630003
b10110101 *
b10110101 X
b10110101 ,
b10110101 U
#5640002
0.
#5650002
1.
#5650003
b10110110 *
b10110110 X
b10110110 ,
b10110110 U
#5660002
0.
#5670002
1.
#5670003
b10110111 *
b10110111 X
b10110111 ,
b10110111 U
#5680002
0.
#5690002
1.
#5690003
b10111000 *
b10111000 X
b10111000 ,
b10111000 U
#5700002
0.
#5710002
1.
#5710003
b10111001 *
b10111001 X
b10111001 ,
b10111001 U
#5720002
0.
#5730002
1.
#5730003
b10111010 *
b10111010 X
b10111010 ,
b10111010 U
#5740002
0.
#5750002
1.
#5750003
b10111011 *
b10111011 X
b10111011 ,
b10111011 U
#5760002
0.
#5770002
1.
#5770003
b10111100 *
b10111100 X
b10111100 ,
b10111100 U
#5780002
0.
#5790002
1.
#5790003
b10111101 *
b10111101 X
b10111101 ,
b10111101 U
#5800002
0.
#5810002
1.
#5810003
b10111110 *
b10111110 X
b10111110 ,
b10111110 U
#5820002
0.
#5830002
1.
#5830003
b10111111 *
b10111111 X
b10111111 ,
b10111111 U
#5840002
0.
#5850002
1.
#5850003
b11000000 *
b11000000 X
b11000000 ,
b11000000 U
#5860002
0.
#5870002
1.
#5870003
b11000001 *
b11000001 X
b11000001 ,
b11000001 U
#5880002
0.
#5890002
1.
#5890003
b11000010 *
b11000010 X
b11000010 ,
b11000010 U
#5900002
0.
#5910002
1.
#5910003
b11000011 *
b11000011 X
b11000011 ,
b11000011 U
#5920002
0.
#5930002
1.
#5930003
b11000100 *
b11000100 X
b11000100 ,
b11000100 U
#5940002
0.
#5950002
1.
#5950003
b11000101 *
b11000101 X
b11000101 ,
b11000101 U
#5960002
0.
#5970002
1.
#5970003
b11000110 *
b11000110 X
b11000110 ,
b11000110 U
#5980002
0.
#5990002
1.
#5990003
b11000111 *
b11000111 X
b11000111 ,
b11000111 U
#6000002
0.
#6010002
1.
#6010003
b11001000 *
b11001000 X
b11001000 ,
b11001000 U
#6020002
0.
#6030002
1.
#6030003
b11001001 *
b11001001 X
b11001001 ,
b11001001 U
#6040002
0.
#6050002
1.
#6050003
b11001010 *
b11001010 X
b11001010 ,
b11001010 U
#6060002
0.
#6070002
1.
#6070003
b11001011 *
b11001011 X
b11001011 ,
b11001011 U
#6080002
0.
#6090002
1.
#6090003
b11001100 *
b11001100 X
b11001100 ,
b11001100 U
#6100002
0.
#6110002
1.
#6110003
b11001101 *
b11001101 X
b11001101 ,
b11001101 U
#6120002
0.
#6130002
1.
#6130003
b11001110 *
b11001110 X
b11001110 ,
b11001110 U
#6140002
0.
#6150002
1.
#6150003
b11001111 *
b11001111 X
b11001111 ,
b11001111 U
#6160002
0.
#6170002
1.
#6170003
b11010000 *
b11010000 X
b11010000 ,
b11010000 U
#6180002
0.
#6190002
1.
#6190003
b11010001 *
b11010001 X
b11010001 ,
b11010001 U
#6200002
0.
#6210002
1.
#6210003
b11010010 *
b11010010 X
b11010010 ,
b11010010 U
#6220002
0.
#6230002
1.
#6230003
b11010011 *
b11010011 X
b11010011 ,
b11010011 U
#6240002
0.
#6250002
1.
#6250003
b11010100 *
b11010100 X
b11010100 ,
b11010100 U
#6260002
0.
#6270002
1.
#6270003
b11010101 *
b11010101 X
b11010101 ,
b11010101 U
#6280002
0.
#6290002
1.
#6290003
b11010110 *
b11010110 X
b11010110 ,
b11010110 U
#6300002
0.
#6310002
1.
#6310003
b11010111 *
b11010111 X
b11010111 ,
b11010111 U
#6320002
0.
#6330002
1.
#6330003
b11011000 *
b11011000 X
b11011000 ,
b11011000 U
#6340002
0.
#6350002
1.
#6350003
b11011001 *
b11011001 X
b11011001 ,
b11011001 U
#6360002
0.
#6370002
1.
#6370003
b11011010 *
b11011010 X
b11011010 ,
b11011010 U
#6380002
0.
#6390002
1.
#6390003
b11011011 *
b11011011 X
b11011011 ,
b11011011 U
#6400002
0.
#6410002
1.
#6410003
b11011100 *
b11011100 X
b11011100 ,
b11011100 U
#6420002
0.
#6430002
1.
#6430003
b11011101 *
b11011101 X
b11011101 ,
b11011101 U
#6440002
0.
#6450002
1.
#6450003
b11011110 *
b11011110 X
b11011110 ,
b11011110 U
#6460002
0.
#6470002
1.
#6470003
b11011111 *
b11011111 X
b11011111 ,
b11011111 U
#6480002
0.
#6490002
1.
#6490003
b11100000 *
b11100000 X
b11100000 ,
b11100000 U
#6500002
0.
#6510002
1.
#6510003
b11100001 *
b11100001 X
b11100001 ,
b11100001 U
#6520002
0.
#6530002
1.
#6530003
b11100010 *
b11100010 X
b11100010 ,
b11100010 U
#6540002
0.
#6550002
1.
#6550003
b11100011 *
b11100011 X
b11100011 ,
b11100011 U
#6560002
0.
#6570002
1.
#6570003
b11100100 *
b11100100 X
b11100100 ,
b11100100 U
#6580002
0.
#6590002
1.
#6590003
b11100101 *
b11100101 X
b11100101 ,
b11100101 U
#6600002
0.
#6610002
1.
#6610003
b11100110 *
b11100110 X
b11100110 ,
b11100110 U
#6620002
0.
#6630002
1.
#6630003
b11100111 *
b11100111 X
b11100111 ,
b11100111 U
#6640002
0.
#6650002
1.
#6650003
b11101000 *
b11101000 X
b11101000 ,
b11101000 U
#6660002
0.
#6670002
1.
#6670003
b11101001 *
b11101001 X
b11101001 ,
b11101001 U
#6680002
0.
#6690002
1.
#6690003
b11101010 *
b11101010 X
b11101010 ,
b11101010 U
#6700002
0.
#6710002
1.
#6710003
b11101011 *
b11101011 X
b11101011 ,
b11101011 U
#6720002
0.
#6730002
1.
